rtl/tb.vcd
$date
	Fri Dec 10 21:22:01 2021
$end
$version
	Icarus Verilog
$end
$timescale
	1s
$end
$scope module tb $end
$var wire 32 ! register_v0 [31:0] $end
$var wire 32 " instr_address [31:0] $end
$var wire 32 # data_writedata [31:0] $end
$var wire 1 $ data_write $end
$var wire 32 % data_readdata [31:0] $end
$var wire 1 & data_read $end
$var wire 32 ' data_address [31:0] $end
$var wire 1 ( active $end
$var reg 1 ) clk $end
$var reg 1 * clk_enable $end
$var reg 32 + instr_readdata [31:0] $end
$var reg 1 , reset $end
$scope module dm $end
$var wire 1 ) clk $end
$var wire 1 * clock_enable $end
$var wire 1 , reset $end
$var wire 32 - write_data [31:0] $end
$var wire 1 $ write $end
$var wire 1 & read $end
$var wire 32 . address [31:0] $end
$var reg 32 / c [31:0] $end
$var reg 32 0 read_data [31:0] $end
$upscope $end
$scope module dut $end
$var wire 1 ) clk $end
$var wire 1 * clk_enable $end
$var wire 32 1 data_readdata [31:0] $end
$var wire 32 2 instr_address [31:0] $end
$var wire 32 3 instr_readdata [31:0] $end
$var wire 32 4 instruction [31:0] $end
$var wire 1 , reset $end
$var wire 1 5 unsign $end
$var wire 32 6 target [31:0] $end
$var wire 32 7 sa [31:0] $end
$var wire 1 8 regwrite $end
$var wire 1 9 regdst $end
$var wire 32 : reg_write_data_3 [31:0] $end
$var wire 32 ; reg_write_data_2 [31:0] $end
$var wire 32 < reg_write_data [31:0] $end
$var wire 5 = reg_write_addr [4:0] $end
$var wire 32 > reg_read_b [31:0] $end
$var wire 32 ? reg_read_a [31:0] $end
$var wire 32 @ r2 [31:0] $end
$var wire 32 A pc_out [31:0] $end
$var wire 32 B pc4 [31:0] $end
$var wire 1 C memtoreg $end
$var wire 1 D lt $end
$var wire 32 E lo [31:0] $end
$var wire 32 F link_data [31:0] $end
$var wire 1 G jump $end
$var wire 32 H imm [31:0] $end
$var wire 32 I hi [31:0] $end
$var wire 1 J eq $end
$var wire 1 $ data_write $end
$var wire 1 & data_read $end
$var wire 32 K data_address [31:0] $end
$var wire 1 L branch $end
$var wire 1 M alusrc $end
$var wire 32 N aluout [31:0] $end
$var wire 2 O alucwire [1:0] $end
$var wire 4 P alucon [3:0] $end
$var wire 32 Q alub1 [31:0] $end
$var wire 32 R alua_in [31:0] $end
$var reg 1 ( active $end
$var reg 5 S addrd [4:0] $end
$var reg 5 T addrs [4:0] $end
$var reg 5 U addrt [4:0] $end
$var reg 32 V alub_in [31:0] $end
$var reg 32 W data_writedata [31:0] $end
$var reg 6 X func [5:0] $end
$var reg 6 Y insop [5:0] $end
$var reg 32 Z mem_addr_hold [31:0] $end
$var reg 5 [ reg_write_addr_hold [4:0] $end
$var reg 32 \ reg_write_data_1 [31:0] $end
$var reg 32 ] register_v0 [31:0] $end
$scope module alu_block $end
$var wire 32 ^ alub [31:0] $end
$var wire 1 5 unsign $end
$var wire 32 _ reg_read_a [31:0] $end
$var wire 4 ` ALUcon [3:0] $end
$var reg 32 a ALUoutput [31:0] $end
$var reg 1 J eq $end
$var reg 32 b hi [31:0] $end
$var reg 32 c lo [31:0] $end
$var reg 1 D lt $end
$var reg 64 d multiplier [63:0] $end
$upscope $end
$scope module alucontrol_block $end
$var wire 6 e func [5:0] $end
$var wire 6 f op [5:0] $end
$var wire 2 g ALUop [1:0] $end
$var reg 4 h ALUcon [3:0] $end
$upscope $end
$scope module branch_data_block $end
$var wire 32 i imm [31:0] $end
$var wire 6 j insop [5:0] $end
$var reg 32 k alub [31:0] $end
$upscope $end
$scope module control_block $end
$var wire 5 l branchfield [4:0] $end
$var wire 6 m func [5:0] $end
$var wire 6 n insop [5:0] $end
$var wire 1 8 regwrite $end
$var wire 1 9 regdst $end
$var wire 1 $ memwrite $end
$var wire 1 C memtoreg $end
$var wire 1 & memread $end
$var wire 1 G jump $end
$var wire 1 L branch $end
$var wire 1 M ALUsrc $end
$var wire 2 o ALUop [1:0] $end
$var reg 10 p controlsig [9:0] $end
$upscope $end
$scope module dac_block $end
$var wire 32 q address [31:0] $end
$var wire 32 r instruction [31:0] $end
$var reg 32 s address_out [31:0] $end
$upscope $end
$scope module hilo_block $end
$var wire 6 t func [5:0] $end
$var wire 32 u hi_in [31:0] $end
$var wire 6 v insop [5:0] $end
$var wire 32 w lo_in [31:0] $end
$var wire 32 x reg_read_a [31:0] $end
$var reg 32 y hi [31:0] $end
$var reg 32 z lo [31:0] $end
$upscope $end
$scope module link_block $end
$var wire 32 { instruction [31:0] $end
$var wire 5 | reg_write_addr_in [4:0] $end
$var wire 32 } old_reg_data [31:0] $end
$var wire 32 ~ new_reg_data [31:0] $end
$var reg 32 !" new_reg_write_data [31:0] $end
$var reg 5 "" reg_write_addr_out [4:0] $end
$upscope $end
$scope module load_block $end
$var wire 32 #" instruction [31:0] $end
$var wire 32 $" read_data [31:0] $end
$var reg 32 %" out [31:0] $end
$var reg 32 &" reg_data [31:0] $end
$upscope $end
$scope module lw_block $end
$var wire 32 '" instruction [31:0] $end
$var wire 32 (" mem_address [31:0] $end
$var wire 32 )" read_data [31:0] $end
$var wire 32 *" reg_d [31:0] $end
$var reg 32 +" out [31:0] $end
$var reg 32 ," reg_data [31:0] $end
$upscope $end
$scope module pcupdate_block $end
$var wire 1 L branch $end
$var wire 1 ) clk $end
$var wire 1 * clk_enable $end
$var wire 1 J eq $end
$var wire 32 -" immediate [31:0] $end
$var wire 32 ." instruction [31:0] $end
$var wire 1 G jump $end
$var wire 1 D lt $end
$var wire 32 /" pc4 [31:0] $end
$var wire 1 , reset $end
$var wire 32 0" target [31:0] $end
$var wire 32 1" reg_read [31:0] $end
$var reg 1 2" branch_d $end
$var reg 1 3" fail $end
$var reg 1 4" jump_d $end
$var reg 32 5" out [31:0] $end
$var reg 32 6" pc_out [31:0] $end
$var reg 32 7" pc_out_d [31:0] $end
$var reg 32 8" pc_target [31:0] $end
$var reg 32 9" reg_out [31:0] $end
$var reg 32 :" shift [31:0] $end
$upscope $end
$scope module regfile $end
$var wire 5 ;" address_1 [4:0] $end
$var wire 5 <" address_2 [4:0] $end
$var wire 1 ) clk $end
$var wire 1 * clk_enable $end
$var wire 1 , reset $end
$var wire 5 =" write_address [4:0] $end
$var wire 32 >" write_data [31:0] $end
$var wire 1 8 write_enable $end
$var reg 5 ?" c [4:0] $end
$var reg 32 @" d [31:0] $end
$var reg 32 A" read_data1 [31:0] $end
$var reg 32 B" read_data2 [31:0] $end
$var reg 32 C" register_v0 [31:0] $end
$upscope $end
$scope module shift_control_block $end
$var wire 32 D" instruction [31:0] $end
$var wire 32 E" org_data [31:0] $end
$var wire 32 F" sa [31:0] $end
$var reg 32 G" alu_in [31:0] $end
$upscope $end
$scope module unsign_block $end
$var wire 32 H" instruction [31:0] $end
$var reg 1 5 unsign $end
$upscope $end
$upscope $end
$upscope $end
$enddefinitions $end
#0
$dumpvars
bx H"
bx G"
b0xxxxx F"
bx E"
bx D"
b0 C"
bx B"
bx A"
b0 @"
b0 ?"
bx >"
bx ="
bx <"
bx ;"
bx :"
bx 9"
bx 8"
b11111111111111111111111111111100 7"
bx 6"
bx 5"
x4"
x3"
x2"
bx 1"
b1111xxxxxxxxxxxxxxxxxxxxxxxxxx00 0"
b0 /"
bx ."
b0xxxxxxxxxxxxxxxx -"
bx ,"
bx +"
bx *"
bx )"
bx ("
bx '"
bx &"
bx %"
bx $"
bx #"
bx ""
bx !"
bx ~
bx }
bx |
bx {
bx z
bx y
bx x
bx w
bx v
bx u
bx t
bx s
bx r
bx q
bx p
bx o
bx n
bx m
bx l
b0xxxxxxxxxxxxxxxx k
bx j
b0xxxxxxxxxxxxxxxx i
bx h
bx g
bx f
bx e
bx d
bx c
bx b
bx a
bx `
bx _
bx ^
bx ]
bx \
bx [
bx Z
bx Y
bx X
bx W
bx V
bx U
bx T
bx S
bx R
b0xxxxxxxxxxxxxxxx Q
bx P
bx O
bx N
xM
xL
bx K
xJ
bx I
b0xxxxxxxxxxxxxxxx H
xG
bx F
bx E
xD
xC
b0 B
b11111111111111111111111111111100 A
b0 @
bx ?
bx >
bx =
bx <
bx ;
bx :
x9
x8
b0xxxxx 7
b1111xxxxxxxxxxxxxxxxxxxxxxxxxx00 6
x5
bx 4
bx 3
b11111111111111111111111111111100 2
bx 1
bx 0
b1000000000000 /
bx .
bx -
0,
bx +
1*
0)
0(
bx '
x&
bx %
x$
bx #
b11111111111111111111111111111100 "
bx !
$end
#4
b100000 <
b100000 !"
b100000 >"
b100000 '
b100000 .
b100000 K
b100000 s
b100000 :
b100000 }
b100000 ,"
b100000 +"
b100000 ;
b100000 &"
b100000 )"
b100000 %"
b100000 Z
b100000 q
b100000 ("
b100000 \
b100000 $"
b100000 N
b100000 a
b0 P
b0 `
b0 h
b100000 Q
b100000 k
09
0G
0L
0&
0$
0C
18
1M
b11 O
b11 g
b11 o
b0 #
b0 -
b0 W
b100000 V
b100000 ^
b100000 H
b100000 i
b100000 -"
b0 R
b0 _
b0 G"
b0 E
b0 c
b0 w
b0 I
b0 b
b0 u
0D
0J
b1111 p
b0 >
b0 *"
b0 B"
b0 ?
b0 x
b0 1"
b0 A"
b0 E"
b0 7
b0 F"
b1 =
b1 ""
b1 ="
15
b1000000000010000000 6
b1000000000010000000 0"
b0 !
b0 ]
b1 [
b1 |
b100000 X
b100000 e
b100000 m
b100000 t
b1001 Y
b1001 f
b1001 j
b1001 n
b1001 v
b0 S
b1 U
b1 l
b1 <"
b0 T
b0 ;"
b100100000000010000000000100000 4
b100100000000010000000000100000 r
b100100000000010000000000100000 {
b100100000000010000000000100000 #"
b100100000000010000000000100000 '"
b100100000000010000000000100000 ."
b100100000000010000000000100000 D"
b100100000000010000000000100000 H"
b100100000000010000000000100000 +
b100100000000010000000000100000 3
b100 B
b100 /"
b0 "
b0 2
b0 A
b0 7"
b0 6"
1)
#8
0)
#12
b100000 <
b100000 !"
b100000 >"
b100000 '
b100000 .
b100000 K
b100000 s
b100000 :
b100000 }
b100000 ,"
b100000 +"
b100000 ;
b100000 &"
b100000 )"
b100000 %"
b100000 Z
b100000 q
b100000 ("
b0 V
b0 ^
b100000 \
b100000 $"
b1 P
b1 `
b1 h
b100000 N
b100000 a
b11 Q
b11 k
1L
08
0M
b1 O
b1 g
b1 o
b100000 R
b100000 _
b100000 G"
b11 H
b11 i
b11 -"
b10000001 p
b100000 ?
b100000 x
b100000 1"
b100000 A"
b100000 E"
b100000000000000000001100 6
b100000000000000000001100 0"
b0 =
b0 ""
b0 ="
b0 [
b0 |
b11 X
b11 e
b11 m
b11 t
b100 Y
b100 f
b100 j
b100 n
b100 v
b0 U
b0 l
b0 <"
b1 T
b1 ;"
b10000001000000000000000000011 4
b10000001000000000000000000011 r
b10000001000000000000000000011 {
b10000001000000000000000000011 #"
b10000001000000000000000000011 '"
b10000001000000000000000000011 ."
b10000001000000000000000000011 D"
b10000001000000000000000000011 H"
b10000001000000000000000000011 +
b10000001000000000000000000011 3
b1000 B
b1000 /"
b100 "
b100 2
b100 A
b100 7"
04"
02"
b0 #
b0 -
b0 W
b0 >
b0 *"
b0 B"
b100 6"
1)
#16
0)
#20
b100000 <
b100000 !"
b100000 >"
b100000 '
b100000 .
b100000 K
b100000 s
b100000 :
b100000 }
b100000 ,"
b100000 +"
b100000 ;
b100000 &"
b100000 )"
b100000 %"
b100000 Z
b100000 q
b100000 ("
b100000 V
b100000 ^
b100000 \
b100000 $"
b0 P
b0 `
b0 h
0J
b100000 N
b100000 a
b100000 Q
b100000 k
0L
18
1M
b11 O
b11 g
b11 o
b0 R
b0 _
b0 G"
b100000 H
b100000 i
b100000 -"
b1111 p
b0 ?
b0 x
b0 1"
b0 A"
b0 E"
b10000000000010000000 6
b10000000000010000000 0"
b10 =
b10 ""
b10 ="
b10 [
b10 |
b100000 X
b100000 e
b100000 m
b100000 t
b1001 Y
b1001 f
b1001 j
b1001 n
b1001 v
b10 U
b10 l
b10 <"
b0 T
b0 ;"
b100100000000100000000000100000 4
b100100000000100000000000100000 r
b100100000000100000000000100000 {
b100100000000100000000000100000 #"
b100100000000100000000000100000 '"
b100100000000100000000000100000 ."
b100100000000100000000000100000 D"
b100100000000100000000000100000 H"
b100100000000100000000000100000 +
b100100000000100000000000100000 3
b1100 8"
b1100 B
b1100 /"
b1000 "
b1000 2
b1000 A
b1000 7"
12"
b1100 6"
b10100 5"
b1100 :"
13"
1)
#24
0)
#28
b0 <
b0 !"
b0 >"
b0 '
b0 .
b0 K
b0 s
b0 :
b0 }
b0 ,"
b0 +"
b0 ;
b0 &"
b0 )"
b0 %"
1J
b0 Z
b0 q
b0 ("
b0 \
b0 $"
b1 P
b1 `
b1 h
b0 N
b0 a
b10 Q
b10 k
1L
08
0M
b1 O
b1 g
b1 o
b100000 R
b100000 _
b100000 G"
b10 H
b10 i
b10 -"
b10000001 p
b100000 ?
b100000 x
b100000 1"
b100000 A"
b100000 E"
b100010000000000000001000 6
b100010000000000000001000 0"
b10 X
b10 e
b10 m
b10 t
b100 Y
b100 f
b100 j
b100 n
b100 v
b1 T
b1 ;"
b10000001000100000000000000010 4
b10000001000100000000000000010 r
b10000001000100000000000000010 {
b10000001000100000000000000010 #"
b10000001000100000000000000010 '"
b10000001000100000000000000010 ."
b10000001000100000000000000010 D"
b10000001000100000000000000010 H"
b10000001000100000000000000010 +
b10000001000100000000000000010 3
b10000 B
b10000 /"
b1100 "
b1100 2
b1100 A
b1100 7"
02"
b100000 #
b100000 -
b100000 W
b100000 @
b100000 C"
b100000 >
b100000 *"
b100000 B"
1)
#32
0)
#36
b1000000 <
b1000000 !"
b1000000 >"
b1000000 '
b1000000 .
b1000000 K
b1000000 s
b1000000 :
b1000000 }
b1000000 ,"
b1000000 +"
b1000000 ;
b1000000 &"
b1000000 )"
b1000000 %"
b1000000 Z
b1000000 q
b1000000 ("
b1000000 \
b1000000 $"
b1000000 N
b1000000 a
0J
b0 P
b0 `
b0 h
b100000 Q
b100000 k
0L
18
1M
b11 O
b11 g
b11 o
b100000 H
b100000 i
b100000 -"
b1111 p
b1000010000000000010000000 6
b1000010000000000010000000 0"
b100000 X
b100000 e
b100000 m
b100000 t
b1001 Y
b1001 f
b1001 j
b1001 n
b1001 v
b10 T
b10 ;"
b100100010000100000000000100000 4
b100100010000100000000000100000 r
b100100010000100000000000100000 {
b100100010000100000000000100000 #"
b100100010000100000000000100000 '"
b100100010000100000000000100000 ."
b100100010000100000000000100000 D"
b100100010000100000000000100000 H"
b100100010000100000000000100000 +
b100100010000100000000000100000 3
b11000 8"
b10100 B
b10100 /"
b10000 "
b10000 2
b10000 A
b10000 7"
12"
b11000 6"
b11000 5"
b1000 :"
03"
1)
#40
0)
#44
b11100 B
b11100 /"
b11000 "
b11000 2
b11000 A
b11000 7"
02"
b1100000 <
b1100000 !"
b1100000 >"
b1100000 '
b1100000 .
b1100000 K
b1100000 s
b1100000 :
b1100000 }
b1100000 ,"
b1100000 +"
b1100000 ;
b1100000 &"
b1100000 )"
b1100000 %"
b1100000 Z
b1100000 q
b1100000 ("
b1100000 \
b1100000 $"
b1100000 N
b1100000 a
b1000000 #
b1000000 -
b1000000 W
b1000000 R
b1000000 _
b1000000 G"
b1000000 @
b1000000 C"
b1000000 >
b1000000 *"
b1000000 B"
b1000000 ?
b1000000 x
b1000000 1"
b1000000 A"
b1000000 E"
b10100 6"
1)
#48
0)
#52
b0 V
b0 ^
b1000 Q
b1000 k
1G
08
0M
b0 O
b0 g
b0 o
b1000 H
b1000 i
b1000 -"
b100000000 p
b1111100000000000000000100000 6
b1111100000000000000000100000 0"
b0 =
b0 ""
b0 ="
b0 [
b0 |
b1000 X
b1000 e
b1000 m
b1000 t
b0 Y
b0 f
b0 j
b0 n
b0 v
b0 U
b0 l
b0 <"
b11111 T
b11111 ;"
b11111000000000000000001000 4
b11111000000000000000001000 r
b11111000000000000000001000 {
b11111000000000000000001000 #"
b11111000000000000000001000 '"
b11111000000000000000001000 ."
b11111000000000000000001000 D"
b11111000000000000000001000 H"
b11111000000000000000001000 +
b11111000000000000000001000 3
b100000 B
b100000 /"
b11100 "
b11100 2
b11100 A
b11100 7"
b0 <
b0 !"
b0 >"
b0 '
b0 .
b0 K
b0 s
b0 :
b0 }
b0 ,"
b0 +"
b0 ;
b0 &"
b0 )"
b0 %"
b0 Z
b0 q
b0 ("
b0 \
b0 $"
b0 N
b0 a
b0 #
b0 -
b0 W
b0 R
b0 _
b0 G"
b1100000 @
b1100000 C"
b0 >
b0 *"
b0 B"
b0 ?
b0 x
b0 1"
b0 A"
b0 E"
b11100 6"
1)
#56
0)
#60
b0 Q
b0 k
19
0G
18
b0 H
b0 i
b0 -"
b111 P
b111 `
b111 h
b1000001000 p
b0 6
b0 0"
b0 X
b0 e
b0 m
b0 t
b0 T
b0 ;"
b0 4
b0 r
b0 {
b0 #"
b0 '"
b0 ."
b0 D"
b0 H"
b0 +
b0 3
b0 8"
b100100 B
b100100 /"
b100000 "
b100000 2
b100000 A
b100000 7"
14"
b0 6"
1)
#64
0)
#68
b100000 <
b100000 !"
b100000 >"
b100000 '
b100000 .
b100000 K
b100000 s
b100000 :
b100000 }
b100000 ,"
b100000 +"
b100000 ;
b100000 &"
b100000 )"
b100000 %"
b1 =
b1 ""
b1 ="
b100000 Z
b100000 q
b100000 ("
b100000 \
b100000 $"
b1 [
b1 |
b100000 Q
b100000 k
b100000 N
b100000 a
09
1M
b11 O
b11 g
b11 o
b100000 #
b100000 -
b100000 W
b100000 V
b100000 ^
b100000 H
b100000 i
b100000 -"
b0 P
b0 `
b0 h
b1111 p
b100000 >
b100000 *"
b100000 B"
b1000000000010000000 6
b1000000000010000000 0"
b1100000 !
b1100000 ]
b100000 X
b100000 e
b100000 m
b100000 t
b1001 Y
b1001 f
b1001 j
b1001 n
b1001 v
b1 U
b1 l
b1 <"
b100100000000010000000000100000 4
b100100000000010000000000100000 r
b100100000000010000000000100000 {
b100100000000010000000000100000 #"
b100100000000010000000000100000 '"
b100100000000010000000000100000 ."
b100100000000010000000000100000 D"
b100100000000010000000000100000 H"
b100100000000010000000000100000 +
b100100000000010000000000100000 3
b100 B
b100 /"
b0 "
b0 2
b0 A
b0 7"
04"
b100100 6"
1)
#72
0)
#76
b100000 <
b100000 !"
b100000 >"
b100000 '
b100000 .
b100000 K
b100000 s
b100000 :
b100000 }
b100000 ,"
b100000 +"
b100000 ;
b100000 &"
b100000 )"
b100000 %"
b100000 Z
b100000 q
b100000 ("
b0 V
b0 ^
b100000 \
b100000 $"
b1 P
b1 `
b1 h
b100000 N
b100000 a
b11 Q
b11 k
1L
08
0M
b1 O
b1 g
b1 o
b0 #
b0 -
b0 W
b100000 R
b100000 _
b100000 G"
b11 H
b11 i
b11 -"
b10000001 p
b0 >
b0 *"
b0 B"
b100000 ?
b100000 x
b100000 1"
b100000 A"
b100000 E"
b100000000000000000001100 6
b100000000000000000001100 0"
b0 =
b0 ""
b0 ="
b0 [
b0 |
b11 X
b11 e
b11 m
b11 t
b100 Y
b100 f
b100 j
b100 n
b100 v
b0 U
b0 l
b0 <"
b1 T
b1 ;"
b10000001000000000000000000011 4
b10000001000000000000000000011 r
b10000001000000000000000000011 {
b10000001000000000000000000011 #"
b10000001000000000000000000011 '"
b10000001000000000000000000011 ."
b10000001000000000000000000011 D"
b10000001000000000000000000011 H"
b10000001000000000000000000011 +
b10000001000000000000000000011 3
b1000 B
b1000 /"
b100 "
b100 2
b100 A
b100 7"
b100 6"
1)
#80
0)
#84
b100000 <
b100000 !"
b100000 >"
b100000 '
b100000 .
b100000 K
b100000 s
b100000 :
b100000 }
b100000 ,"
b100000 +"
b100000 ;
b100000 &"
b100000 )"
b100000 %"
b100000 Z
b100000 q
b100000 ("
b100000 \
b100000 $"
b0 P
b0 `
b0 h
b100000 N
b100000 a
b100000 Q
b100000 k
0L
18
1M
b11 O
b11 g
b11 o
b1100000 #
b1100000 -
b1100000 W
b100000 V
b100000 ^
b0 R
b0 _
b0 G"
b100000 H
b100000 i
b100000 -"
b1111 p
b1100000 >
b1100000 *"
b1100000 B"
b0 ?
b0 x
b0 1"
b0 A"
b0 E"
b10000000000010000000 6
b10000000000010000000 0"
b10 =
b10 ""
b10 ="
b10 [
b10 |
b100000 X
b100000 e
b100000 m
b100000 t
b1001 Y
b1001 f
b1001 j
b1001 n
b1001 v
b10 U
b10 l
b10 <"
b0 T
b0 ;"
b100100000000100000000000100000 4
b100100000000100000000000100000 r
b100100000000100000000000100000 {
b100100000000100000000000100000 #"
b100100000000100000000000100000 '"
b100100000000100000000000100000 ."
b100100000000100000000000100000 D"
b100100000000100000000000100000 H"
b100100000000100000000000100000 +
b100100000000100000000000100000 3
b1100 8"
b1100 B
b1100 /"
b1000 "
b1000 2
b1000 A
b1000 7"
12"
13"
b1100 6"
b10100 5"
b1100 :"
1)
#88
0)
#92
b0 <
b0 !"
b0 >"
b0 '
b0 .
b0 K
b0 s
b0 :
b0 }
b0 ,"
b0 +"
b0 ;
b0 &"
b0 )"
b0 %"
1J
b0 Z
b0 q
b0 ("
b0 \
b0 $"
b1 P
b1 `
b1 h
b0 N
b0 a
b10 Q
b10 k
1L
08
0M
b1 O
b1 g
b1 o
b100000 R
b100000 _
b100000 G"
b10 H
b10 i
b10 -"
b10000001 p
b100000 ?
b100000 x
b100000 1"
b100000 A"
b100000 E"
b100010000000000000001000 6
b100010000000000000001000 0"
b10 X
b10 e
b10 m
b10 t
b100 Y
b100 f
b100 j
b100 n
b100 v
b1 T
b1 ;"
b10000001000100000000000000010 4
b10000001000100000000000000010 r
b10000001000100000000000000010 {
b10000001000100000000000000010 #"
b10000001000100000000000000010 '"
b10000001000100000000000000010 ."
b10000001000100000000000000010 D"
b10000001000100000000000000010 H"
b10000001000100000000000000010 +
b10000001000100000000000000010 3
b10000 B
b10000 /"
b1100 "
b1100 2
b1100 A
b1100 7"
02"
b100000 #
b100000 -
b100000 W
b100000 @
b100000 C"
b100000 >
b100000 *"
b100000 B"
1)
#96
0)
#100
b1000000 <
b1000000 !"
b1000000 >"
b1000000 '
b1000000 .
b1000000 K
b1000000 s
b1000000 :
b1000000 }
b1000000 ,"
b1000000 +"
b1000000 ;
b1000000 &"
b1000000 )"
b1000000 %"
b1000000 Z
b1000000 q
b1000000 ("
b1000000 \
b1000000 $"
b1000000 N
b1000000 a
0J
b0 P
b0 `
b0 h
b100000 Q
b100000 k
0L
18
1M
b11 O
b11 g
b11 o
b100000 H
b100000 i
b100000 -"
b1111 p
b1000010000000000010000000 6
b1000010000000000010000000 0"
b100000 X
b100000 e
b100000 m
b100000 t
b1001 Y
b1001 f
b1001 j
b1001 n
b1001 v
b10 T
b10 ;"
b100100010000100000000000100000 4
b100100010000100000000000100000 r
b100100010000100000000000100000 {
b100100010000100000000000100000 #"
b100100010000100000000000100000 '"
b100100010000100000000000100000 ."
b100100010000100000000000100000 D"
b100100010000100000000000100000 H"
b100100010000100000000000100000 +
b100100010000100000000000100000 3
b11000 8"
b10100 B
b10100 /"
b10000 "
b10000 2
b10000 A
b10000 7"
12"
b11000 6"
b11000 5"
b1000 :"
03"
1)
#104
0)
#108
b11100 B
b11100 /"
b11000 "
b11000 2
b11000 A
b11000 7"
02"
b1100000 <
b1100000 !"
b1100000 >"
b1100000 '
b1100000 .
b1100000 K
b1100000 s
b1100000 :
b1100000 }
b1100000 ,"
b1100000 +"
b1100000 ;
b1100000 &"
b1100000 )"
b1100000 %"
b1100000 Z
b1100000 q
b1100000 ("
b1100000 \
b1100000 $"
b1100000 N
b1100000 a
b1000000 #
b1000000 -
b1000000 W
b1000000 R
b1000000 _
b1000000 G"
b1000000 @
b1000000 C"
b1000000 >
b1000000 *"
b1000000 B"
b1000000 ?
b1000000 x
b1000000 1"
b1000000 A"
b1000000 E"
b10100 6"
1)
#112
0)
#116
b0 V
b0 ^
b1000 Q
b1000 k
1G
08
0M
b0 O
b0 g
b0 o
b1000 H
b1000 i
b1000 -"
b100000000 p
b1111100000000000000000100000 6
b1111100000000000000000100000 0"
b0 =
b0 ""
b0 ="
b0 [
b0 |
b1000 X
b1000 e
b1000 m
b1000 t
b0 Y
b0 f
b0 j
b0 n
b0 v
b0 U
b0 l
b0 <"
b11111 T
b11111 ;"
b11111000000000000000001000 4
b11111000000000000000001000 r
b11111000000000000000001000 {
b11111000000000000000001000 #"
b11111000000000000000001000 '"
b11111000000000000000001000 ."
b11111000000000000000001000 D"
b11111000000000000000001000 H"
b11111000000000000000001000 +
b11111000000000000000001000 3
b100000 B
b100000 /"
b11100 "
b11100 2
b11100 A
b11100 7"
b0 <
b0 !"
b0 >"
b0 '
b0 .
b0 K
b0 s
b0 :
b0 }
b0 ,"
b0 +"
b0 ;
b0 &"
b0 )"
b0 %"
b0 Z
b0 q
b0 ("
b0 \
b0 $"
b0 N
b0 a
b0 #
b0 -
b0 W
b0 R
b0 _
b0 G"
b1100000 @
b1100000 C"
b0 >
b0 *"
b0 B"
b0 ?
b0 x
b0 1"
b0 A"
b0 E"
b11100 6"
1)
#120
0)
#124
b0 Q
b0 k
19
0G
18
b0 H
b0 i
b0 -"
b111 P
b111 `
b111 h
b1000001000 p
b0 6
b0 0"
b0 X
b0 e
b0 m
b0 t
b0 T
b0 ;"
b0 4
b0 r
b0 {
b0 #"
b0 '"
b0 ."
b0 D"
b0 H"
b0 +
b0 3
b0 8"
b100100 B
b100100 /"
b100000 "
b100000 2
b100000 A
b100000 7"
14"
b0 6"
1)
#128
0)
#132
b100000 <
b100000 !"
b100000 >"
b100000 '
b100000 .
b100000 K
b100000 s
b100000 :
b100000 }
b100000 ,"
b100000 +"
b100000 ;
b100000 &"
b100000 )"
b100000 %"
b1 =
b1 ""
b1 ="
b100000 Z
b100000 q
b100000 ("
b100000 \
b100000 $"
b1 [
b1 |
b100000 Q
b100000 k
b100000 N
b100000 a
09
1M
b11 O
b11 g
b11 o
b100000 #
b100000 -
b100000 W
b100000 V
b100000 ^
b100000 H
b100000 i
b100000 -"
b0 P
b0 `
b0 h
b1111 p
b100000 >
b100000 *"
b100000 B"
b1000000000010000000 6
b1000000000010000000 0"
b100000 X
b100000 e
b100000 m
b100000 t
b1001 Y
b1001 f
b1001 j
b1001 n
b1001 v
b1 U
b1 l
b1 <"
b100100000000010000000000100000 4
b100100000000010000000000100000 r
b100100000000010000000000100000 {
b100100000000010000000000100000 #"
b100100000000010000000000100000 '"
b100100000000010000000000100000 ."
b100100000000010000000000100000 D"
b100100000000010000000000100000 H"
b100100000000010000000000100000 +
b100100000000010000000000100000 3
b100 B
b100 /"
b0 "
b0 2
b0 A
b0 7"
04"
b100100 6"
1)
#136
0)
#140
b100000 <
b100000 !"
b100000 >"
b100000 '
b100000 .
b100000 K
b100000 s
b100000 :
b100000 }
b100000 ,"
b100000 +"
b100000 ;
b100000 &"
b100000 )"
b100000 %"
b100000 Z
b100000 q
b100000 ("
b0 V
b0 ^
b100000 \
b100000 $"
b1 P
b1 `
b1 h
b100000 N
b100000 a
b11 Q
b11 k
1L
08
0M
b1 O
b1 g
b1 o
b0 #
b0 -
b0 W
b100000 R
b100000 _
b100000 G"
b11 H
b11 i
b11 -"
b10000001 p
b0 >
b0 *"
b0 B"
b100000 ?
b100000 x
b100000 1"
b100000 A"
b100000 E"
b100000000000000000001100 6
b100000000000000000001100 0"
b0 =
b0 ""
b0 ="
b0 [
b0 |
b11 X
b11 e
b11 m
b11 t
b100 Y
b100 f
b100 j
b100 n
b100 v
b0 U
b0 l
b0 <"
b1 T
b1 ;"
b10000001000000000000000000011 4
b10000001000000000000000000011 r
b10000001000000000000000000011 {
b10000001000000000000000000011 #"
b10000001000000000000000000011 '"
b10000001000000000000000000011 ."
b10000001000000000000000000011 D"
b10000001000000000000000000011 H"
b10000001000000000000000000011 +
b10000001000000000000000000011 3
b1000 B
b1000 /"
b100 "
b100 2
b100 A
b100 7"
b100 6"
1)
#144
0)
#148
b100000 <
b100000 !"
b100000 >"
b100000 '
b100000 .
b100000 K
b100000 s
b100000 :
b100000 }
b100000 ,"
b100000 +"
b100000 ;
b100000 &"
b100000 )"
b100000 %"
b100000 Z
b100000 q
b100000 ("
b100000 \
b100000 $"
b0 P
b0 `
b0 h
b100000 N
b100000 a
b100000 Q
b100000 k
0L
18
1M
b11 O
b11 g
b11 o
b1100000 #
b1100000 -
b1100000 W
b100000 V
b100000 ^
b0 R
b0 _
b0 G"
b100000 H
b100000 i
b100000 -"
b1111 p
b1100000 >
b1100000 *"
b1100000 B"
b0 ?
b0 x
b0 1"
b0 A"
b0 E"
b10000000000010000000 6
b10000000000010000000 0"
b10 =
b10 ""
b10 ="
b10 [
b10 |
b100000 X
b100000 e
b100000 m
b100000 t
b1001 Y
b1001 f
b1001 j
b1001 n
b1001 v
b10 U
b10 l
b10 <"
b0 T
b0 ;"
b100100000000100000000000100000 4
b100100000000100000000000100000 r
b100100000000100000000000100000 {
b100100000000100000000000100000 #"
b100100000000100000000000100000 '"
b100100000000100000000000100000 ."
b100100000000100000000000100000 D"
b100100000000100000000000100000 H"
b100100000000100000000000100000 +
b100100000000100000000000100000 3
b1100 8"
b1100 B
b1100 /"
b1000 "
b1000 2
b1000 A
b1000 7"
12"
13"
b1100 6"
b10100 5"
b1100 :"
1)
#152
0)
