rtl/tb.vcd
$date
	Fri Dec 10 22:25:55 2021
$end
$version
	Icarus Verilog
$end
$timescale
	1s
$end
$scope module tb $end
$var wire 32 ! register_v0 [31:0] $end
$var wire 32 " instr_address [31:0] $end
$var wire 32 # data_writedata [31:0] $end
$var wire 1 $ data_write $end
$var wire 32 % data_readdata [31:0] $end
$var wire 1 & data_read $end
$var wire 32 ' data_address [31:0] $end
$var wire 1 ( active $end
$var reg 1 ) clk $end
$var reg 1 * clk_enable $end
$var reg 32 + instr_readdata [31:0] $end
$var reg 1 , reset $end
$scope module dm $end
$var wire 1 ) clk $end
$var wire 1 * clock_enable $end
$var wire 1 , reset $end
$var wire 32 - write_data [31:0] $end
$var wire 1 $ write $end
$var wire 1 & read $end
$var wire 32 . address [31:0] $end
$var reg 32 / c [31:0] $end
$var reg 32 0 read_data [31:0] $end
$upscope $end
$scope module dut $end
$var wire 1 ) clk $end
$var wire 1 * clk_enable $end
$var wire 32 1 data_readdata [31:0] $end
$var wire 32 2 instr_address [31:0] $end
$var wire 32 3 instr_readdata [31:0] $end
$var wire 32 4 instruction [31:0] $end
$var wire 1 , reset $end
$var wire 32 5 sb_mem_in [31:0] $end
$var wire 32 6 sb_reg_in [31:0] $end
$var wire 1 7 unsign $end
$var wire 32 8 target [31:0] $end
$var wire 32 9 sb_out [31:0] $end
$var wire 32 : sa [31:0] $end
$var wire 1 ; regwrite $end
$var wire 1 < regdst $end
$var wire 32 = reg_write_data_3 [31:0] $end
$var wire 32 > reg_write_data_2 [31:0] $end
$var wire 32 ? reg_write_data [31:0] $end
$var wire 5 @ reg_write_addr [4:0] $end
$var wire 32 A reg_read_b [31:0] $end
$var wire 32 B reg_read_a [31:0] $end
$var wire 32 C r2 [31:0] $end
$var wire 32 D pc_out [31:0] $end
$var wire 32 E pc4 [31:0] $end
$var wire 1 F memtoreg $end
$var wire 1 G lt $end
$var wire 32 H lo [31:0] $end
$var wire 32 I link_data [31:0] $end
$var wire 1 J jump $end
$var wire 32 K imm [31:0] $end
$var wire 32 L hi [31:0] $end
$var wire 1 M eq $end
$var wire 1 $ data_write $end
$var wire 1 & data_read $end
$var wire 32 N data_address [31:0] $end
$var wire 1 O branch $end
$var wire 1 P alusrc $end
$var wire 32 Q aluout [31:0] $end
$var wire 2 R alucwire [1:0] $end
$var wire 4 S alucon [3:0] $end
$var wire 32 T alub1 [31:0] $end
$var wire 32 U alua_in [31:0] $end
$var reg 1 ( active $end
$var reg 5 V addrd [4:0] $end
$var reg 5 W addrs [4:0] $end
$var reg 5 X addrt [4:0] $end
$var reg 32 Y alub_in [31:0] $end
$var reg 32 Z data_writedata [31:0] $end
$var reg 6 [ func [5:0] $end
$var reg 6 \ insop [5:0] $end
$var reg 32 ] mem_addr_hold [31:0] $end
$var reg 5 ^ reg_write_addr_hold [4:0] $end
$var reg 32 _ reg_write_data_1 [31:0] $end
$var reg 32 ` register_v0 [31:0] $end
$scope module alu_block $end
$var wire 32 a alub [31:0] $end
$var wire 1 7 unsign $end
$var wire 32 b reg_read_a [31:0] $end
$var wire 4 c ALUcon [3:0] $end
$var reg 32 d ALUoutput [31:0] $end
$var reg 1 M eq $end
$var reg 32 e hi [31:0] $end
$var reg 32 f lo [31:0] $end
$var reg 1 G lt $end
$var reg 64 g multiplier [63:0] $end
$upscope $end
$scope module alucontrol_block $end
$var wire 6 h func [5:0] $end
$var wire 6 i op [5:0] $end
$var wire 2 j ALUop [1:0] $end
$var reg 4 k ALUcon [3:0] $end
$upscope $end
$scope module branch_data_block $end
$var wire 32 l imm [31:0] $end
$var wire 6 m insop [5:0] $end
$var reg 32 n alub [31:0] $end
$upscope $end
$scope module control_block $end
$var wire 5 o branchfield [4:0] $end
$var wire 6 p func [5:0] $end
$var wire 6 q insop [5:0] $end
$var wire 1 ; regwrite $end
$var wire 1 < regdst $end
$var wire 1 $ memwrite $end
$var wire 1 F memtoreg $end
$var wire 1 & memread $end
$var wire 1 J jump $end
$var wire 1 O branch $end
$var wire 1 P ALUsrc $end
$var wire 2 r ALUop [1:0] $end
$var reg 10 s controlsig [9:0] $end
$upscope $end
$scope module dac_block $end
$var wire 32 t address [31:0] $end
$var wire 32 u instruction [31:0] $end
$var reg 32 v address_out [31:0] $end
$upscope $end
$scope module hilo_block $end
$var wire 6 w func [5:0] $end
$var wire 32 x hi_in [31:0] $end
$var wire 6 y insop [5:0] $end
$var wire 32 z lo_in [31:0] $end
$var wire 32 { reg_read_a [31:0] $end
$var reg 32 | hi [31:0] $end
$var reg 32 } lo [31:0] $end
$upscope $end
$scope module link_block $end
$var wire 32 ~ instruction [31:0] $end
$var wire 5 !" reg_write_addr_in [4:0] $end
$var wire 32 "" old_reg_data [31:0] $end
$var wire 32 #" new_reg_data [31:0] $end
$var reg 32 $" new_reg_write_data [31:0] $end
$var reg 5 %" reg_write_addr_out [4:0] $end
$upscope $end
$scope module load_block $end
$var wire 32 &" instruction [31:0] $end
$var wire 32 '" read_data [31:0] $end
$var reg 32 (" out [31:0] $end
$var reg 32 )" reg_data [31:0] $end
$upscope $end
$scope module lw_block $end
$var wire 32 *" instruction [31:0] $end
$var wire 32 +" mem_address [31:0] $end
$var wire 32 ," read_data [31:0] $end
$var wire 32 -" reg_d [31:0] $end
$var reg 32 ." out [31:0] $end
$var reg 32 /" reg_data [31:0] $end
$upscope $end
$scope module pcupdate_block $end
$var wire 1 O branch $end
$var wire 1 ) clk $end
$var wire 1 * clk_enable $end
$var wire 1 M eq $end
$var wire 32 0" immediate [31:0] $end
$var wire 32 1" instruction [31:0] $end
$var wire 1 J jump $end
$var wire 1 G lt $end
$var wire 32 2" pc4 [31:0] $end
$var wire 1 , reset $end
$var wire 32 3" target [31:0] $end
$var wire 32 4" reg_read [31:0] $end
$var reg 1 5" branch_d $end
$var reg 1 6" fail $end
$var reg 1 7" jump_d $end
$var reg 32 8" out [31:0] $end
$var reg 32 9" pc_out [31:0] $end
$var reg 32 :" pc_out_d [31:0] $end
$var reg 32 ;" pc_target [31:0] $end
$var reg 32 <" reg_out [31:0] $end
$var reg 32 =" shift [31:0] $end
$upscope $end
$scope module regfile $end
$var wire 5 >" address_1 [4:0] $end
$var wire 5 ?" address_2 [4:0] $end
$var wire 1 ) clk $end
$var wire 1 * clk_enable $end
$var wire 1 , reset $end
$var wire 5 @" write_address [4:0] $end
$var wire 32 A" write_data [31:0] $end
$var wire 1 ; write_enable $end
$var reg 5 B" c [4:0] $end
$var reg 32 C" d [31:0] $end
$var reg 32 D" read_data1 [31:0] $end
$var reg 32 E" read_data2 [31:0] $end
$var reg 32 F" register_v0 [31:0] $end
$upscope $end
$scope module sb_block $end
$var wire 6 G" insop [5:0] $end
$var wire 32 H" mem_data [31:0] $end
$var wire 32 I" reg_data [31:0] $end
$var reg 32 J" out [31:0] $end
$upscope $end
$scope module shift_control_block $end
$var wire 32 K" instruction [31:0] $end
$var wire 32 L" org_data [31:0] $end
$var wire 32 M" sa [31:0] $end
$var reg 32 N" alu_in [31:0] $end
$upscope $end
$scope module unsign_block $end
$var wire 32 O" instruction [31:0] $end
$var reg 1 7 unsign $end
$upscope $end
$upscope $end
$upscope $end
$enddefinitions $end
#0
$dumpvars
bx O"
bx N"
b0xxxxx M"
bx L"
bx K"
bx J"
bx I"
bx H"
bx G"
b0 F"
bx E"
bx D"
b0 C"
b0 B"
bx A"
bx @"
bx ?"
bx >"
bx ="
bx <"
bx ;"
b11111111111111111111111111111100 :"
bx 9"
bx 8"
x7"
x6"
x5"
bx 4"
b1111xxxxxxxxxxxxxxxxxxxxxxxxxx00 3"
b0 2"
bx 1"
b0xxxxxxxxxxxxxxxx 0"
bx /"
bx ."
bx -"
bx ,"
bx +"
bx *"
bx )"
bx ("
bx '"
bx &"
bx %"
bx $"
bx #"
bx ""
bx !"
bx ~
bx }
bx |
bx {
bx z
bx y
bx x
bx w
bx v
bx u
bx t
bx s
bx r
bx q
bx p
bx o
b0xxxxxxxxxxxxxxxx n
bx m
b0xxxxxxxxxxxxxxxx l
bx k
bx j
bx i
bx h
bx g
bx f
bx e
bx d
bx c
bx b
bx a
bx `
bx _
bx ^
bx ]
bx \
bx [
bx Z
bx Y
bx X
bx W
bx V
bx U
b0xxxxxxxxxxxxxxxx T
bx S
bx R
bx Q
xP
xO
bx N
xM
bx L
b0xxxxxxxxxxxxxxxx K
xJ
bx I
bx H
xG
xF
b0 E
b11111111111111111111111111111100 D
b0 C
bx B
bx A
bx @
bx ?
bx >
bx =
x<
x;
b0xxxxx :
bx 9
b1111xxxxxxxxxxxxxxxxxxxxxxxxxx00 8
x7
bx 6
bx 5
bx 4
bx 3
b11111111111111111111111111111100 2
bx 1
bx 0
b1000000000000 /
bx .
bx -
0,
bx +
1*
0)
0(
bx '
x&
bx %
x$
bx #
b11111111111111111111111111111100 "
bx !
$end
#4
b100000 ?
b100000 $"
b100000 A"
b100000 '
b100000 .
b100000 N
b100000 v
b100000 =
b100000 ""
b100000 /"
b100000 ."
b100000 >
b100000 )"
b100000 ,"
b100000 ("
b100000 ]
b100000 t
b100000 +"
b100000 _
b100000 '"
b100000 Q
b100000 d
b0 S
b0 c
b0 k
b100000 T
b100000 n
0<
0J
0O
0&
0$
0F
1;
1P
b11 R
b11 j
b11 r
b0 #
b0 -
b0 Z
b100000 Y
b100000 a
b100000 K
b100000 l
b100000 0"
b0 U
b0 b
b0 N"
b0 H
b0 f
b0 z
b0 L
b0 e
b0 x
0G
0M
b1111 s
b0 6
b0 H"
b0 A
b0 -"
b0 E"
b0 B
b0 {
b0 4"
b0 D"
b0 L"
b0 :
b0 M"
b1 @
b1 %"
b1 @"
17
b1000000000010000000 8
b1000000000010000000 3"
b0 !
b0 `
b1 ^
b1 !"
b100000 [
b100000 h
b100000 p
b100000 w
b1001 \
b1001 i
b1001 m
b1001 q
b1001 y
b1001 G"
b0 V
b1 X
b1 o
b1 ?"
b0 W
b0 >"
b100100000000010000000000100000 4
b100100000000010000000000100000 u
b100100000000010000000000100000 ~
b100100000000010000000000100000 &"
b100100000000010000000000100000 *"
b100100000000010000000000100000 1"
b100100000000010000000000100000 K"
b100100000000010000000000100000 O"
b100100000000010000000000100000 +
b100100000000010000000000100000 3
b100 E
b100 2"
b0 "
b0 2
b0 D
b0 :"
b0 9"
1)
#8
0)
#12
b100000 ?
b100000 $"
b100000 A"
b100000 '
b100000 .
b100000 N
b100000 v
b100000 =
b100000 ""
b100000 /"
b100000 ."
b100000 >
b100000 )"
b100000 ,"
b100000 ("
b100000 ]
b100000 t
b100000 +"
b0 Y
b0 a
b100000 _
b100000 '"
b1 S
b1 c
b1 k
b100000 Q
b100000 d
b11 T
b11 n
1O
0;
0P
b1 R
b1 j
b1 r
b100000 U
b100000 b
b100000 N"
b11 K
b11 l
b11 0"
b10000001 s
b100000 B
b100000 {
b100000 4"
b100000 D"
b100000 L"
b100000000000000000001100 8
b100000000000000000001100 3"
b0 @
b0 %"
b0 @"
b0 ^
b0 !"
b11 [
b11 h
b11 p
b11 w
b100 \
b100 i
b100 m
b100 q
b100 y
b100 G"
b0 X
b0 o
b0 ?"
b1 W
b1 >"
b10000001000000000000000000011 4
b10000001000000000000000000011 u
b10000001000000000000000000011 ~
b10000001000000000000000000011 &"
b10000001000000000000000000011 *"
b10000001000000000000000000011 1"
b10000001000000000000000000011 K"
b10000001000000000000000000011 O"
b10000001000000000000000000011 +
b10000001000000000000000000011 3
b1000 E
b1000 2"
b100 "
b100 2
b100 D
b100 :"
07"
05"
b0 #
b0 -
b0 Z
b0 6
b0 H"
b0 A
b0 -"
b0 E"
b100 9"
1)
#16
0)
#20
b100000 ?
b100000 $"
b100000 A"
b100000 '
b100000 .
b100000 N
b100000 v
b100000 =
b100000 ""
b100000 /"
b100000 ."
b100000 >
b100000 )"
b100000 ,"
b100000 ("
b100000 ]
b100000 t
b100000 +"
b100000 Y
b100000 a
b100000 _
b100000 '"
b0 S
b0 c
b0 k
0M
b100000 Q
b100000 d
b100000 T
b100000 n
0O
1;
1P
b11 R
b11 j
b11 r
b0 U
b0 b
b0 N"
b100000 K
b100000 l
b100000 0"
b1111 s
b0 B
b0 {
b0 4"
b0 D"
b0 L"
b10000000000010000000 8
b10000000000010000000 3"
b10 @
b10 %"
b10 @"
b10 ^
b10 !"
b100000 [
b100000 h
b100000 p
b100000 w
b1001 \
b1001 i
b1001 m
b1001 q
b1001 y
b1001 G"
b10 X
b10 o
b10 ?"
b0 W
b0 >"
b100100000000100000000000100000 4
b100100000000100000000000100000 u
b100100000000100000000000100000 ~
b100100000000100000000000100000 &"
b100100000000100000000000100000 *"
b100100000000100000000000100000 1"
b100100000000100000000000100000 K"
b100100000000100000000000100000 O"
b100100000000100000000000100000 +
b100100000000100000000000100000 3
b1100 ;"
b1100 E
b1100 2"
b1000 "
b1000 2
b1000 D
b1000 :"
15"
b1100 9"
b10100 8"
b1100 ="
16"
1)
#24
0)
#28
b0 ?
b0 $"
b0 A"
b0 '
b0 .
b0 N
b0 v
b0 =
b0 ""
b0 /"
b0 ."
b0 >
b0 )"
b0 ,"
b0 ("
1M
b0 ]
b0 t
b0 +"
b0 _
b0 '"
b1 S
b1 c
b1 k
b0 Q
b0 d
b10 T
b10 n
1O
0;
0P
b1 R
b1 j
b1 r
b100000 U
b100000 b
b100000 N"
b10 K
b10 l
b10 0"
b10000001 s
b100000 B
b100000 {
b100000 4"
b100000 D"
b100000 L"
b100010000000000000001000 8
b100010000000000000001000 3"
b10 [
b10 h
b10 p
b10 w
b100 \
b100 i
b100 m
b100 q
b100 y
b100 G"
b1 W
b1 >"
b10000001000100000000000000010 4
b10000001000100000000000000010 u
b10000001000100000000000000010 ~
b10000001000100000000000000010 &"
b10000001000100000000000000010 *"
b10000001000100000000000000010 1"
b10000001000100000000000000010 K"
b10000001000100000000000000010 O"
b10000001000100000000000000010 +
b10000001000100000000000000010 3
b10000 E
b10000 2"
b1100 "
b1100 2
b1100 D
b1100 :"
05"
b100000 #
b100000 -
b100000 Z
b100000 C
b100000 F"
b100000 6
b100000 H"
b100000 A
b100000 -"
b100000 E"
1)
#32
0)
#36
b1000000 ?
b1000000 $"
b1000000 A"
b1000000 '
b1000000 .
b1000000 N
b1000000 v
b1000000 =
b1000000 ""
b1000000 /"
b1000000 ."
b1000000 >
b1000000 )"
b1000000 ,"
b1000000 ("
b1000000 ]
b1000000 t
b1000000 +"
b1000000 _
b1000000 '"
b1000000 Q
b1000000 d
0M
b0 S
b0 c
b0 k
b100000 T
b100000 n
0O
1;
1P
b11 R
b11 j
b11 r
b100000 K
b100000 l
b100000 0"
b1111 s
b1000010000000000010000000 8
b1000010000000000010000000 3"
b100000 [
b100000 h
b100000 p
b100000 w
b1001 \
b1001 i
b1001 m
b1001 q
b1001 y
b1001 G"
b10 W
b10 >"
b100100010000100000000000100000 4
b100100010000100000000000100000 u
b100100010000100000000000100000 ~
b100100010000100000000000100000 &"
b100100010000100000000000100000 *"
b100100010000100000000000100000 1"
b100100010000100000000000100000 K"
b100100010000100000000000100000 O"
b100100010000100000000000100000 +
b100100010000100000000000100000 3
b11000 ;"
b10100 E
b10100 2"
b10000 "
b10000 2
b10000 D
b10000 :"
15"
b11000 9"
b11000 8"
b1000 ="
06"
1)
#40
0)
#44
b11100 E
b11100 2"
b11000 "
b11000 2
b11000 D
b11000 :"
05"
b1100000 ?
b1100000 $"
b1100000 A"
b1100000 '
b1100000 .
b1100000 N
b1100000 v
b1100000 =
b1100000 ""
b1100000 /"
b1100000 ."
b1100000 >
b1100000 )"
b1100000 ,"
b1100000 ("
b1100000 ]
b1100000 t
b1100000 +"
b1100000 _
b1100000 '"
b1100000 Q
b1100000 d
b1000000 #
b1000000 -
b1000000 Z
b1000000 U
b1000000 b
b1000000 N"
b1000000 C
b1000000 F"
b1000000 6
b1000000 H"
b1000000 A
b1000000 -"
b1000000 E"
b1000000 B
b1000000 {
b1000000 4"
b1000000 D"
b1000000 L"
b10100 9"
1)
#48
0)
#52
b0 Y
b0 a
b1000 T
b1000 n
1J
0;
0P
b0 R
b0 j
b0 r
b1000 K
b1000 l
b1000 0"
b100000000 s
b1111100000000000000000100000 8
b1111100000000000000000100000 3"
b0 @
b0 %"
b0 @"
b0 ^
b0 !"
b1000 [
b1000 h
b1000 p
b1000 w
b0 \
b0 i
b0 m
b0 q
b0 y
b0 G"
b0 X
b0 o
b0 ?"
b11111 W
b11111 >"
b11111000000000000000001000 4
b11111000000000000000001000 u
b11111000000000000000001000 ~
b11111000000000000000001000 &"
b11111000000000000000001000 *"
b11111000000000000000001000 1"
b11111000000000000000001000 K"
b11111000000000000000001000 O"
b11111000000000000000001000 +
b11111000000000000000001000 3
b100000 E
b100000 2"
b11100 "
b11100 2
b11100 D
b11100 :"
b0 ?
b0 $"
b0 A"
b0 '
b0 .
b0 N
b0 v
b0 =
b0 ""
b0 /"
b0 ."
b0 >
b0 )"
b0 ,"
b0 ("
b0 ]
b0 t
b0 +"
b0 _
b0 '"
b0 Q
b0 d
b0 #
b0 -
b0 Z
b0 U
b0 b
b0 N"
b1100000 C
b1100000 F"
b0 6
b0 H"
b0 A
b0 -"
b0 E"
b0 B
b0 {
b0 4"
b0 D"
b0 L"
b11100 9"
1)
#56
0)
#60
b0 T
b0 n
1<
0J
1;
b0 K
b0 l
b0 0"
b111 S
b111 c
b111 k
b1000001000 s
b0 8
b0 3"
b0 [
b0 h
b0 p
b0 w
b0 W
b0 >"
b0 4
b0 u
b0 ~
b0 &"
b0 *"
b0 1"
b0 K"
b0 O"
b0 +
b0 3
b0 ;"
b100100 E
b100100 2"
b100000 "
b100000 2
b100000 D
b100000 :"
17"
b0 9"
1)
#64
0)
#68
b100000 ?
b100000 $"
b100000 A"
b100000 '
b100000 .
b100000 N
b100000 v
b100000 =
b100000 ""
b100000 /"
b100000 ."
b100000 >
b100000 )"
b100000 ,"
b100000 ("
b1 @
b1 %"
b1 @"
b100000 ]
b100000 t
b100000 +"
b100000 _
b100000 '"
b1 ^
b1 !"
b100000 T
b100000 n
b100000 Q
b100000 d
0<
1P
b11 R
b11 j
b11 r
b100000 #
b100000 -
b100000 Z
b100000 Y
b100000 a
b100000 K
b100000 l
b100000 0"
b0 S
b0 c
b0 k
b1111 s
b100000 6
b100000 H"
b100000 A
b100000 -"
b100000 E"
b1000000000010000000 8
b1000000000010000000 3"
b1100000 !
b1100000 `
b100000 [
b100000 h
b100000 p
b100000 w
b1001 \
b1001 i
b1001 m
b1001 q
b1001 y
b1001 G"
b1 X
b1 o
b1 ?"
b100100000000010000000000100000 4
b100100000000010000000000100000 u
b100100000000010000000000100000 ~
b100100000000010000000000100000 &"
b100100000000010000000000100000 *"
b100100000000010000000000100000 1"
b100100000000010000000000100000 K"
b100100000000010000000000100000 O"
b100100000000010000000000100000 +
b100100000000010000000000100000 3
b100 E
b100 2"
b0 "
b0 2
b0 D
b0 :"
07"
b100100 9"
1)
#72
0)
#76
b100000 ?
b100000 $"
b100000 A"
b100000 '
b100000 .
b100000 N
b100000 v
b100000 =
b100000 ""
b100000 /"
b100000 ."
b100000 >
b100000 )"
b100000 ,"
b100000 ("
b100000 ]
b100000 t
b100000 +"
b0 Y
b0 a
b100000 _
b100000 '"
b1 S
b1 c
b1 k
b100000 Q
b100000 d
b11 T
b11 n
1O
0;
0P
b1 R
b1 j
b1 r
b0 #
b0 -
b0 Z
b100000 U
b100000 b
b100000 N"
b11 K
b11 l
b11 0"
b10000001 s
b0 6
b0 H"
b0 A
b0 -"
b0 E"
b100000 B
b100000 {
b100000 4"
b100000 D"
b100000 L"
b100000000000000000001100 8
b100000000000000000001100 3"
b0 @
b0 %"
b0 @"
b0 ^
b0 !"
b11 [
b11 h
b11 p
b11 w
b100 \
b100 i
b100 m
b100 q
b100 y
b100 G"
b0 X
b0 o
b0 ?"
b1 W
b1 >"
b10000001000000000000000000011 4
b10000001000000000000000000011 u
b10000001000000000000000000011 ~
b10000001000000000000000000011 &"
b10000001000000000000000000011 *"
b10000001000000000000000000011 1"
b10000001000000000000000000011 K"
b10000001000000000000000000011 O"
b10000001000000000000000000011 +
b10000001000000000000000000011 3
b1000 E
b1000 2"
b100 "
b100 2
b100 D
b100 :"
b100 9"
1)
#80
0)
#84
b100000 ?
b100000 $"
b100000 A"
b100000 '
b100000 .
b100000 N
b100000 v
b100000 =
b100000 ""
b100000 /"
b100000 ."
b100000 >
b100000 )"
b100000 ,"
b100000 ("
b100000 ]
b100000 t
b100000 +"
b100000 _
b100000 '"
b0 S
b0 c
b0 k
b100000 Q
b100000 d
b100000 T
b100000 n
0O
1;
1P
b11 R
b11 j
b11 r
b1100000 #
b1100000 -
b1100000 Z
b100000 Y
b100000 a
b0 U
b0 b
b0 N"
b100000 K
b100000 l
b100000 0"
b1111 s
b1100000 6
b1100000 H"
b1100000 A
b1100000 -"
b1100000 E"
b0 B
b0 {
b0 4"
b0 D"
b0 L"
b10000000000010000000 8
b10000000000010000000 3"
b10 @
b10 %"
b10 @"
b10 ^
b10 !"
b100000 [
b100000 h
b100000 p
b100000 w
b1001 \
b1001 i
b1001 m
b1001 q
b1001 y
b1001 G"
b10 X
b10 o
b10 ?"
b0 W
b0 >"
b100100000000100000000000100000 4
b100100000000100000000000100000 u
b100100000000100000000000100000 ~
b100100000000100000000000100000 &"
b100100000000100000000000100000 *"
b100100000000100000000000100000 1"
b100100000000100000000000100000 K"
b100100000000100000000000100000 O"
b100100000000100000000000100000 +
b100100000000100000000000100000 3
b1100 ;"
b1100 E
b1100 2"
b1000 "
b1000 2
b1000 D
b1000 :"
15"
16"
b1100 9"
b10100 8"
b1100 ="
1)
#88
0)
#92
b0 ?
b0 $"
b0 A"
b0 '
b0 .
b0 N
b0 v
b0 =
b0 ""
b0 /"
b0 ."
b0 >
b0 )"
b0 ,"
b0 ("
1M
b0 ]
b0 t
b0 +"
b0 _
b0 '"
b1 S
b1 c
b1 k
b0 Q
b0 d
b10 T
b10 n
1O
0;
0P
b1 R
b1 j
b1 r
b100000 U
b100000 b
b100000 N"
b10 K
b10 l
b10 0"
b10000001 s
b100000 B
b100000 {
b100000 4"
b100000 D"
b100000 L"
b100010000000000000001000 8
b100010000000000000001000 3"
b10 [
b10 h
b10 p
b10 w
b100 \
b100 i
b100 m
b100 q
b100 y
b100 G"
b1 W
b1 >"
b10000001000100000000000000010 4
b10000001000100000000000000010 u
b10000001000100000000000000010 ~
b10000001000100000000000000010 &"
b10000001000100000000000000010 *"
b10000001000100000000000000010 1"
b10000001000100000000000000010 K"
b10000001000100000000000000010 O"
b10000001000100000000000000010 +
b10000001000100000000000000010 3
b10000 E
b10000 2"
b1100 "
b1100 2
b1100 D
b1100 :"
05"
b100000 #
b100000 -
b100000 Z
b100000 C
b100000 F"
b100000 6
b100000 H"
b100000 A
b100000 -"
b100000 E"
1)
#96
0)
#100
b1000000 ?
b1000000 $"
b1000000 A"
b1000000 '
b1000000 .
b1000000 N
b1000000 v
b1000000 =
b1000000 ""
b1000000 /"
b1000000 ."
b1000000 >
b1000000 )"
b1000000 ,"
b1000000 ("
b1000000 ]
b1000000 t
b1000000 +"
b1000000 _
b1000000 '"
b1000000 Q
b1000000 d
0M
b0 S
b0 c
b0 k
b100000 T
b100000 n
0O
1;
1P
b11 R
b11 j
b11 r
b100000 K
b100000 l
b100000 0"
b1111 s
b1000010000000000010000000 8
b1000010000000000010000000 3"
b100000 [
b100000 h
b100000 p
b100000 w
b1001 \
b1001 i
b1001 m
b1001 q
b1001 y
b1001 G"
b10 W
b10 >"
b100100010000100000000000100000 4
b100100010000100000000000100000 u
b100100010000100000000000100000 ~
b100100010000100000000000100000 &"
b100100010000100000000000100000 *"
b100100010000100000000000100000 1"
b100100010000100000000000100000 K"
b100100010000100000000000100000 O"
b100100010000100000000000100000 +
b100100010000100000000000100000 3
b11000 ;"
b10100 E
b10100 2"
b10000 "
b10000 2
b10000 D
b10000 :"
15"
b11000 9"
b11000 8"
b1000 ="
06"
1)
#104
0)
#108
b11100 E
b11100 2"
b11000 "
b11000 2
b11000 D
b11000 :"
05"
b1100000 ?
b1100000 $"
b1100000 A"
b1100000 '
b1100000 .
b1100000 N
b1100000 v
b1100000 =
b1100000 ""
b1100000 /"
b1100000 ."
b1100000 >
b1100000 )"
b1100000 ,"
b1100000 ("
b1100000 ]
b1100000 t
b1100000 +"
b1100000 _
b1100000 '"
b1100000 Q
b1100000 d
b1000000 #
b1000000 -
b1000000 Z
b1000000 U
b1000000 b
b1000000 N"
b1000000 C
b1000000 F"
b1000000 6
b1000000 H"
b1000000 A
b1000000 -"
b1000000 E"
b1000000 B
b1000000 {
b1000000 4"
b1000000 D"
b1000000 L"
b10100 9"
1)
#112
0)
#116
b0 Y
b0 a
b1000 T
b1000 n
1J
0;
0P
b0 R
b0 j
b0 r
b1000 K
b1000 l
b1000 0"
b100000000 s
b1111100000000000000000100000 8
b1111100000000000000000100000 3"
b0 @
b0 %"
b0 @"
b0 ^
b0 !"
b1000 [
b1000 h
b1000 p
b1000 w
b0 \
b0 i
b0 m
b0 q
b0 y
b0 G"
b0 X
b0 o
b0 ?"
b11111 W
b11111 >"
b11111000000000000000001000 4
b11111000000000000000001000 u
b11111000000000000000001000 ~
b11111000000000000000001000 &"
b11111000000000000000001000 *"
b11111000000000000000001000 1"
b11111000000000000000001000 K"
b11111000000000000000001000 O"
b11111000000000000000001000 +
b11111000000000000000001000 3
b100000 E
b100000 2"
b11100 "
b11100 2
b11100 D
b11100 :"
b0 ?
b0 $"
b0 A"
b0 '
b0 .
b0 N
b0 v
b0 =
b0 ""
b0 /"
b0 ."
b0 >
b0 )"
b0 ,"
b0 ("
b0 ]
b0 t
b0 +"
b0 _
b0 '"
b0 Q
b0 d
b0 #
b0 -
b0 Z
b0 U
b0 b
b0 N"
b1100000 C
b1100000 F"
b0 6
b0 H"
b0 A
b0 -"
b0 E"
b0 B
b0 {
b0 4"
b0 D"
b0 L"
b11100 9"
1)
#120
0)
#124
b0 T
b0 n
1<
0J
1;
b0 K
b0 l
b0 0"
b111 S
b111 c
b111 k
b1000001000 s
b0 8
b0 3"
b0 [
b0 h
b0 p
b0 w
b0 W
b0 >"
b0 4
b0 u
b0 ~
b0 &"
b0 *"
b0 1"
b0 K"
b0 O"
b0 +
b0 3
b0 ;"
b100100 E
b100100 2"
b100000 "
b100000 2
b100000 D
b100000 :"
17"
b0 9"
1)
#128
0)
#132
b100000 ?
b100000 $"
b100000 A"
b100000 '
b100000 .
b100000 N
b100000 v
b100000 =
b100000 ""
b100000 /"
b100000 ."
b100000 >
b100000 )"
b100000 ,"
b100000 ("
b1 @
b1 %"
b1 @"
b100000 ]
b100000 t
b100000 +"
b100000 _
b100000 '"
b1 ^
b1 !"
b100000 T
b100000 n
b100000 Q
b100000 d
0<
1P
b11 R
b11 j
b11 r
b100000 #
b100000 -
b100000 Z
b100000 Y
b100000 a
b100000 K
b100000 l
b100000 0"
b0 S
b0 c
b0 k
b1111 s
b100000 6
b100000 H"
b100000 A
b100000 -"
b100000 E"
b1000000000010000000 8
b1000000000010000000 3"
b100000 [
b100000 h
b100000 p
b100000 w
b1001 \
b1001 i
b1001 m
b1001 q
b1001 y
b1001 G"
b1 X
b1 o
b1 ?"
b100100000000010000000000100000 4
b100100000000010000000000100000 u
b100100000000010000000000100000 ~
b100100000000010000000000100000 &"
b100100000000010000000000100000 *"
b100100000000010000000000100000 1"
b100100000000010000000000100000 K"
b100100000000010000000000100000 O"
b100100000000010000000000100000 +
b100100000000010000000000100000 3
b100 E
b100 2"
b0 "
b0 2
b0 D
b0 :"
07"
b100100 9"
1)
#136
0)
#140
b100000 ?
b100000 $"
b100000 A"
b100000 '
b100000 .
b100000 N
b100000 v
b100000 =
b100000 ""
b100000 /"
b100000 ."
b100000 >
b100000 )"
b100000 ,"
b100000 ("
b100000 ]
b100000 t
b100000 +"
b0 Y
b0 a
b100000 _
b100000 '"
b1 S
b1 c
b1 k
b100000 Q
b100000 d
b11 T
b11 n
1O
0;
0P
b1 R
b1 j
b1 r
b0 #
b0 -
b0 Z
b100000 U
b100000 b
b100000 N"
b11 K
b11 l
b11 0"
b10000001 s
b0 6
b0 H"
b0 A
b0 -"
b0 E"
b100000 B
b100000 {
b100000 4"
b100000 D"
b100000 L"
b100000000000000000001100 8
b100000000000000000001100 3"
b0 @
b0 %"
b0 @"
b0 ^
b0 !"
b11 [
b11 h
b11 p
b11 w
b100 \
b100 i
b100 m
b100 q
b100 y
b100 G"
b0 X
b0 o
b0 ?"
b1 W
b1 >"
b10000001000000000000000000011 4
b10000001000000000000000000011 u
b10000001000000000000000000011 ~
b10000001000000000000000000011 &"
b10000001000000000000000000011 *"
b10000001000000000000000000011 1"
b10000001000000000000000000011 K"
b10000001000000000000000000011 O"
b10000001000000000000000000011 +
b10000001000000000000000000011 3
b1000 E
b1000 2"
b100 "
b100 2
b100 D
b100 :"
b100 9"
1)
#144
0)
