harvard/tb.vcd
$date
	Sun Dec 12 17:50:58 2021
$end
$version
	Icarus Verilog
$end
$timescale
	1s
$end
$scope module tb $end
$var wire 32 ! register_v0 [31:0] $end
$var wire 32 " instr_address [31:0] $end
$var wire 32 # data_writedata [31:0] $end
$var wire 1 $ data_write $end
$var wire 32 % data_readdata [31:0] $end
$var wire 1 & data_read $end
$var wire 32 ' data_address [31:0] $end
$var wire 1 ( active $end
$var reg 1 ) clk $end
$var reg 1 * clk_enable $end
$var reg 32 + instr_readdata [31:0] $end
$var reg 1 , reset $end
$scope module dm $end
$var wire 1 ) clk $end
$var wire 1 * clock_enable $end
$var wire 1 , reset $end
$var wire 32 - write_data [31:0] $end
$var wire 1 $ write $end
$var wire 1 & read $end
$var wire 32 . address [31:0] $end
$var reg 32 / c [31:0] $end
$var reg 32 0 read_data [31:0] $end
$upscope $end
$scope module dut $end
$var wire 1 ) clk $end
$var wire 1 * clk_enable $end
$var wire 32 1 data_readdata [31:0] $end
$var wire 32 2 instr_address [31:0] $end
$var wire 32 3 instr_readdata [31:0] $end
$var wire 32 4 instruction [31:0] $end
$var wire 1 , reset $end
$var wire 32 5 sb_mem_in [31:0] $end
$var wire 32 6 sb_reg_in [31:0] $end
$var wire 1 7 unsign $end
$var wire 32 8 target [31:0] $end
$var wire 32 9 sb_out [31:0] $end
$var wire 32 : sa [31:0] $end
$var wire 1 ; regwrite $end
$var wire 1 < regdst $end
$var wire 32 = reg_write_data_3 [31:0] $end
$var wire 32 > reg_write_data_2 [31:0] $end
$var wire 32 ? reg_write_data [31:0] $end
$var wire 5 @ reg_write_addr [4:0] $end
$var wire 32 A reg_read_b [31:0] $end
$var wire 32 B reg_read_a [31:0] $end
$var wire 32 C r2 [31:0] $end
$var wire 32 D pc_out [31:0] $end
$var wire 32 E pc4 [31:0] $end
$var wire 1 F memtoreg $end
$var wire 1 G lt $end
$var wire 32 H lo [31:0] $end
$var wire 32 I link_data [31:0] $end
$var wire 1 J jump $end
$var wire 32 K imm [31:0] $end
$var wire 32 L hi [31:0] $end
$var wire 1 M eq $end
$var wire 1 $ data_write $end
$var wire 1 & data_read $end
$var wire 32 N data_address [31:0] $end
$var wire 1 O branch $end
$var wire 1 P alusrc $end
$var wire 32 Q aluout [31:0] $end
$var wire 2 R alucwire [1:0] $end
$var wire 4 S alucon [3:0] $end
$var wire 32 T alub1 [31:0] $end
$var wire 32 U alua_in [31:0] $end
$var reg 1 ( active $end
$var reg 5 V addrd [4:0] $end
$var reg 5 W addrs [4:0] $end
$var reg 5 X addrt [4:0] $end
$var reg 32 Y alub_in [31:0] $end
$var reg 32 Z data_writedata [31:0] $end
$var reg 6 [ func [5:0] $end
$var reg 6 \ insop [5:0] $end
$var reg 32 ] mem_addr_hold [31:0] $end
$var reg 5 ^ reg_write_addr_hold [4:0] $end
$var reg 32 _ reg_write_data_1 [31:0] $end
$var reg 32 ` register_v0 [31:0] $end
$scope module alu_block $end
$var wire 32 a alub [31:0] $end
$var wire 1 7 unsign $end
$var wire 32 b reg_read_a [31:0] $end
$var wire 4 c ALUcon [3:0] $end
$var reg 32 d ALUoutput [31:0] $end
$var reg 1 M eq $end
$var reg 32 e hi [31:0] $end
$var reg 32 f lo [31:0] $end
$var reg 1 G lt $end
$var reg 64 g multiplier [63:0] $end
$upscope $end
$scope module alucontrol_block $end
$var wire 6 h func [5:0] $end
$var wire 6 i op [5:0] $end
$var wire 2 j ALUop [1:0] $end
$var reg 4 k ALUcon [3:0] $end
$upscope $end
$scope module branch_data_block $end
$var wire 32 l imm [31:0] $end
$var wire 6 m insop [5:0] $end
$var reg 32 n alub [31:0] $end
$upscope $end
$scope module control_block $end
$var wire 5 o branchfield [4:0] $end
$var wire 6 p func [5:0] $end
$var wire 6 q insop [5:0] $end
$var wire 1 ; regwrite $end
$var wire 1 < regdst $end
$var wire 1 $ memwrite $end
$var wire 1 F memtoreg $end
$var wire 1 & memread $end
$var wire 1 J jump $end
$var wire 1 O branch $end
$var wire 1 P ALUsrc $end
$var wire 2 r ALUop [1:0] $end
$var reg 10 s controlsig [9:0] $end
$upscope $end
$scope module dac_block $end
$var wire 32 t address [31:0] $end
$var wire 32 u instruction [31:0] $end
$var reg 32 v address_out [31:0] $end
$upscope $end
$scope module hilo_block $end
$var wire 6 w func [5:0] $end
$var wire 32 x hi_in [31:0] $end
$var wire 6 y insop [5:0] $end
$var wire 32 z lo_in [31:0] $end
$var wire 32 { reg_read_a [31:0] $end
$var reg 32 | hi [31:0] $end
$var reg 32 } lo [31:0] $end
$upscope $end
$scope module link_block $end
$var wire 32 ~ instruction [31:0] $end
$var wire 5 !" reg_write_addr_in [4:0] $end
$var wire 32 "" old_reg_data [31:0] $end
$var wire 32 #" new_reg_data [31:0] $end
$var reg 32 $" new_reg_write_data [31:0] $end
$var reg 5 %" reg_write_addr_out [4:0] $end
$upscope $end
$scope module load_block $end
$var wire 32 &" instruction [31:0] $end
$var wire 32 '" read_data [31:0] $end
$var reg 32 (" out [31:0] $end
$var reg 32 )" reg_data [31:0] $end
$upscope $end
$scope module lw_block $end
$var wire 32 *" instruction [31:0] $end
$var wire 32 +" mem_address [31:0] $end
$var wire 32 ," read_data [31:0] $end
$var wire 32 -" reg_d [31:0] $end
$var reg 32 ." out [31:0] $end
$var reg 32 /" reg_data [31:0] $end
$upscope $end
$scope module pcupdate_block $end
$var wire 1 O branch $end
$var wire 1 ) clk $end
$var wire 1 * clk_enable $end
$var wire 1 M eq $end
$var wire 32 0" immediate [31:0] $end
$var wire 32 1" instruction [31:0] $end
$var wire 1 J jump $end
$var wire 1 G lt $end
$var wire 32 2" pc4 [31:0] $end
$var wire 1 , reset $end
$var wire 32 3" target [31:0] $end
$var wire 32 4" reg_read [31:0] $end
$var reg 1 5" branch_d $end
$var reg 1 6" fail $end
$var reg 1 7" jump_d $end
$var reg 32 8" out [31:0] $end
$var reg 32 9" pc_out [31:0] $end
$var reg 32 :" pc_out_d [31:0] $end
$var reg 32 ;" pc_target [31:0] $end
$var reg 32 <" reg_out [31:0] $end
$var reg 32 =" shift [31:0] $end
$upscope $end
$scope module regfile $end
$var wire 5 >" address_1 [4:0] $end
$var wire 5 ?" address_2 [4:0] $end
$var wire 1 ) clk $end
$var wire 1 * clk_enable $end
$var wire 1 , reset $end
$var wire 5 @" write_address [4:0] $end
$var wire 32 A" write_data [31:0] $end
$var wire 1 ; write_enable $end
$var reg 5 B" c [4:0] $end
$var reg 32 C" read_data1 [31:0] $end
$var reg 32 D" read_data2 [31:0] $end
$var reg 32 E" register_v0 [31:0] $end
$upscope $end
$scope module sb_block $end
$var wire 6 F" insop [5:0] $end
$var wire 32 G" mem_data [31:0] $end
$var wire 32 H" reg_data [31:0] $end
$var reg 32 I" out [31:0] $end
$upscope $end
$scope module shift_control_block $end
$var wire 32 J" instruction [31:0] $end
$var wire 32 K" org_data [31:0] $end
$var wire 32 L" sa [31:0] $end
$var reg 32 M" alu_in [31:0] $end
$upscope $end
$scope module unsign_block $end
$var wire 32 N" instruction [31:0] $end
$var reg 1 7 unsign $end
$upscope $end
$upscope $end
$upscope $end
$enddefinitions $end
#0
$dumpvars
b100100000000011011111111000000 N"
b0 M"
b11111 L"
b0 K"
b100100000000011011111111000000 J"
bx I"
b0 H"
bx G"
b1001 F"
b0 E"
b0 D"
b0 C"
b0 B"
b1011111111000000 A"
b1 @"
b1 ?"
b0 >"
bx ="
bx <"
bx ;"
b10111111110000000000000000000000 :"
b10111111110000000000000000000000 9"
bx 8"
x7"
x6"
x5"
b0 4"
b10110000000001101111111100000000 3"
b10111111110000000000000000000100 2"
b100100000000011011111111000000 1"
b1011111111000000 0"
b1011111111000000 /"
b1011111111000000 ."
b0 -"
b1011111111000000 ,"
b1011111111000000 +"
b100100000000011011111111000000 *"
b1011111111000000 )"
b1011111111000000 ("
b1011111111000000 '"
b100100000000011011111111000000 &"
b1 %"
b1011111111000000 $"
bx #"
b1011111111000000 ""
b1 !"
b100100000000011011111111000000 ~
bx }
bx |
b0 {
b0 z
b1001 y
b0 x
b0 w
b1011111111000000 v
b100100000000011011111111000000 u
b1011111111000000 t
b1111 s
b11 r
b1001 q
b0 p
b1 o
b1011111111000000 n
b1001 m
b1011111111000000 l
b0 k
b11 j
b1001 i
b0 h
bx g
b0 f
b0 e
b1011111111000000 d
b0 c
b0 b
b1011111111000000 a
bx `
b1011111111000000 _
b1 ^
b1011111111000000 ]
b1001 \
b0 [
b0 Z
b1011111111000000 Y
b1 X
b0 W
b10111 V
b0 U
b1011111111000000 T
b0 S
b11 R
b1011111111000000 Q
1P
0O
b1011111111000000 N
0M
b0 L
b1011111111000000 K
0J
bx I
b0 H
0G
0F
b10111111110000000000000000000100 E
b10111111110000000000000000000000 D
b0 C
b0 B
b0 A
b1 @
b1011111111000000 ?
b1011111111000000 >
b1011111111000000 =
0<
1;
b11111 :
bx 9
b10110000000001101111111100000000 8
17
b0 6
bx 5
b100100000000011011111111000000 4
b100100000000011011111111000000 3
b10111111110000000000000000000000 2
bx 1
bx 0
b1000000000000 /
b1011111111000000 .
b0 -
0,
b100100000000011011111111000000 +
1*
1)
0(
b1011111111000000 '
0&
bx %
0$
b0 #
b10111111110000000000000000000000 "
bx !
$end
#4
0)
#8
b10111111110000000000000000000000 ?
b10111111110000000000000000000000 $"
b10111111110000000000000000000000 A"
b10111111110000000000000000000000 '
b10111111110000000000000000000000 .
b10111111110000000000000000000000 N
b10111111110000000000000000000000 v
b10111111110000000000000000000000 =
b10111111110000000000000000000000 ""
b10111111110000000000000000000000 /"
b10111111110000000000000000000000 ."
b10111111110000000000000000000000 >
b10111111110000000000000000000000 )"
b10111111110000000000000000000000 ,"
b10111111110000000000000000000000 ("
b111 S
b111 c
b111 k
b110000000000 T
b110000000000 n
b10111111110000000000000000000000 ]
b10111111110000000000000000000000 t
b10111111110000000000000000000000 +"
b10111111110000000000000000000000 _
b10111111110000000000000000000000 '"
1<
0P
b0 R
b0 j
b0 r
b110000000000 K
b110000000000 l
b110000000000 0"
b10111111110000000000000000000000 Q
b10111111110000000000000000000000 d
b1000001000 s
b10110000000001000011000000000000 8
b10110000000001000011000000000000 3"
b10000 :
b10000 L"
b10000 U
b10000 b
b10000 M"
b0 \
b0 i
b0 m
b0 q
b0 y
b0 F"
b1 V
b10000110000000000 4
b10000110000000000 u
b10000110000000000 ~
b10000110000000000 &"
b10000110000000000 *"
b10000110000000000 1"
b10000110000000000 J"
b10000110000000000 N"
b10000110000000000 +
b10000110000000000 3
b10111111110000000000000000001000 E
b10111111110000000000000000001000 2"
b10111111110000000000000000000100 "
b10111111110000000000000000000100 2
b10111111110000000000000000000100 D
b10111111110000000000000000000100 :"
07"
05"
b1011111111000000 #
b1011111111000000 -
b1011111111000000 Z
b1011111111000000 6
b1011111111000000 H"
b1011111111000000 A
b1011111111000000 -"
b1011111111000000 D"
b10111111110000000000000000000100 9"
1)
#12
0)
#16
b11000 T
b11000 n
b0 L
b0 e
b0 x
0<
1P
b11 R
b11 j
b11 r
b11000 K
b11000 l
b11000 0"
b1000111110100000000100000000000000000000000000000000000000000000 g
b0 S
b0 c
b0 k
b1111 s
b10111111110000000000000000000000 B
b10111111110000000000000000000000 {
b10111111110000000000000000000000 4"
b10111111110000000000000000000000 C"
b10111111110000000000000000000000 K"
b10110000100001000000000001100000 8
b10110000100001000000000001100000 3"
b0 :
b0 L"
b1 @
b1 %"
b1 @"
b10111111110000000000000000000000 U
b10111111110000000000000000000000 b
b10111111110000000000000000000000 M"
b1 ^
b1 !"
b11000 [
b11000 h
b11000 p
b11000 w
b1001 \
b1001 i
b1001 m
b1001 q
b1001 y
b1001 F"
b0 V
b1 W
b1 >"
b100100001000010000000000011000 4
b100100001000010000000000011000 u
b100100001000010000000000011000 ~
b100100001000010000000000011000 &"
b100100001000010000000000011000 *"
b100100001000010000000000011000 1"
b100100001000010000000000011000 J"
b100100001000010000000000011000 N"
b100100001000010000000000011000 +
b100100001000010000000000011000 3
b10111111110000000000000000001100 E
b10111111110000000000000000001100 2"
b10111111110000000000000000001000 "
b10111111110000000000000000001000 2
b10111111110000000000000000001000 D
b10111111110000000000000000001000 :"
b10111111110000000000000000011000 ?
b10111111110000000000000000011000 $"
b10111111110000000000000000011000 A"
b10111111110000000000000000011000 '
b10111111110000000000000000011000 .
b10111111110000000000000000011000 N
b10111111110000000000000000011000 v
b10111111110000000000000000011000 =
b10111111110000000000000000011000 ""
b10111111110000000000000000011000 /"
b10111111110000000000000000011000 ."
b10111111110000000000000000011000 >
b10111111110000000000000000011000 )"
b10111111110000000000000000011000 ,"
b10111111110000000000000000011000 ("
b10111111110000000000000000011000 ]
b10111111110000000000000000011000 t
b10111111110000000000000000011000 +"
b10111111110000000000000000011000 _
b10111111110000000000000000011000 '"
b10111111110000000000000000011000 Q
b10111111110000000000000000011000 d
b10111111110000000000000000000000 #
b10111111110000000000000000000000 -
b10111111110000000000000000000000 Z
b11000 Y
b11000 a
b10111111110000000000000000000000 6
b10111111110000000000000000000000 H"
b10111111110000000000000000000000 A
b10111111110000000000000000000000 -"
b10111111110000000000000000000000 D"
b10111111110000000000000000001000 9"
1)
#20
0)
#24
b0 Y
b0 a
b1100000001001 T
b1100000001001 n
b10111111110000000000000000010100 I
b10111111110000000000000000010100 #"
b10111111110000000000000000010100 <"
1<
1J
0P
b0 R
b0 j
b0 r
b1100000001001 K
b1100000001001 l
b1100000001001 0"
b1100001000 s
b10110000100000000110000000100100 8
b10110000100000000110000000100100 3"
b11 @
b11 %"
b11 @"
b11 ^
b11 !"
b1001 [
b1001 h
b1001 p
b1001 w
b0 \
b0 i
b0 m
b0 q
b0 y
b0 F"
b11 V
b0 X
b0 o
b0 ?"
b1000000001100000001001 4
b1000000001100000001001 u
b1000000001100000001001 ~
b1000000001100000001001 &"
b1000000001100000001001 *"
b1000000001100000001001 1"
b1000000001100000001001 J"
b1000000001100000001001 N"
b1000000001100000001001 +
b1000000001100000001001 3
b10111111110000000000000000010000 E
b10111111110000000000000000010000 2"
b10111111110000000000000000001100 "
b10111111110000000000000000001100 2
b10111111110000000000000000001100 D
b10111111110000000000000000001100 :"
b10111111110000000000000000010100 ?
b10111111110000000000000000010100 $"
b10111111110000000000000000010100 A"
b10111111110000000000000000011000 '
b10111111110000000000000000011000 .
b10111111110000000000000000011000 N
b10111111110000000000000000011000 v
b10111111110000000000000000011000 =
b10111111110000000000000000011000 ""
b10111111110000000000000000011000 /"
b10111111110000000000000000011000 ."
b10111111110000000000000000011000 >
b10111111110000000000000000011000 )"
b10111111110000000000000000011000 ,"
b10111111110000000000000000011000 ("
b10111111110000000000000000011000 ]
b10111111110000000000000000011000 t
b10111111110000000000000000011000 +"
b10111111110000000000000000011000 _
b10111111110000000000000000011000 '"
b10111111110000000000000000011000 Q
b10111111110000000000000000011000 d
b0 #
b0 -
b0 Z
b10111111110000000000000000011000 U
b10111111110000000000000000011000 b
b10111111110000000000000000011000 M"
b0 6
b0 H"
b0 A
b0 -"
b0 D"
b10111111110000000000000000011000 B
b10111111110000000000000000011000 {
b10111111110000000000000000011000 4"
b10111111110000000000000000011000 C"
b10111111110000000000000000011000 K"
b10111111110000000000000000011000 9"
1)
#28
0)
#32
b10111111110000000000000000100100 '
b10111111110000000000000000100100 .
b10111111110000000000000000100100 N
b10111111110000000000000000100100 v
b10111111110000000000000000100100 =
b10111111110000000000000000100100 ""
b10111111110000000000000000100100 /"
b10111111110000000000000000100100 ."
b10111111110000000000000000100100 >
b10111111110000000000000000100100 )"
b10111111110000000000000000100100 ,"
b10111111110000000000000000100100 ("
b10111111110000000000000000100100 ]
b10111111110000000000000000100100 t
b10111111110000000000000000100100 +"
b10111111110000000000000000100100 _
b10111111110000000000000000100100 '"
b10111111110000000000000000100100 Q
b10111111110000000000000000100100 d
b1100 T
b1100 n
0<
0J
1P
b11 R
b11 j
b11 r
b10111111110000000000000000011000 #
b10111111110000000000000000011000 -
b10111111110000000000000000011000 Z
b1100 Y
b1100 a
b1100 K
b1100 l
b1100 0"
b1111 s
b10111111110000000000000000011000 6
b10111111110000000000000000011000 H"
b10111111110000000000000000011000 A
b10111111110000000000000000011000 -"
b10111111110000000000000000011000 D"
b10110000100001000000000000110000 8
b10110000100001000000000000110000 3"
b10111111110000000000000000100100 ?
b10111111110000000000000000100100 $"
b10111111110000000000000000100100 A"
b1 @
b1 %"
b1 @"
b1 ^
b1 !"
b1100 [
b1100 h
b1100 p
b1100 w
b1001 \
b1001 i
b1001 m
b1001 q
b1001 y
b1001 F"
b0 V
b1 X
b1 o
b1 ?"
b100100001000010000000000001100 4
b100100001000010000000000001100 u
b100100001000010000000000001100 ~
b100100001000010000000000001100 &"
b100100001000010000000000001100 *"
b100100001000010000000000001100 1"
b100100001000010000000000001100 J"
b100100001000010000000000001100 N"
b100100001000010000000000001100 +
b100100001000010000000000001100 3
b10111111110000000000000000011000 ;"
b10111111110000000000000000010100 E
b10111111110000000000000000010100 2"
b10111111110000000000000000010000 "
b10111111110000000000000000010000 2
b10111111110000000000000000010000 D
b10111111110000000000000000010000 :"
17"
06"
1)
#36
0)
#40
b0 Y
b0 a
b10000000001001 T
b10000000001001 n
b10111111110000000000000000100000 I
b10111111110000000000000000100000 #"
b10111111110000000000000000100000 <"
1<
1J
0P
b0 R
b0 j
b0 r
b10000000001001 K
b10000000001001 l
b10000000001001 0"
b1100001000 s
b10110000100000001000000000100100 8
b10110000100000001000000000100100 3"
b100 @
b100 %"
b100 @"
b100 ^
b100 !"
b1001 [
b1001 h
b1001 p
b1001 w
b0 \
b0 i
b0 m
b0 q
b0 y
b0 F"
b100 V
b0 X
b0 o
b0 ?"
b1000000010000000001001 4
b1000000010000000001001 u
b1000000010000000001001 ~
b1000000010000000001001 &"
b1000000010000000001001 *"
b1000000010000000001001 1"
b1000000010000000001001 J"
b1000000010000000001001 N"
b1000000010000000001001 +
b1000000010000000001001 3
b10111111110000000000000000011100 E
b10111111110000000000000000011100 2"
b10111111110000000000000000011000 "
b10111111110000000000000000011000 2
b10111111110000000000000000011000 D
b10111111110000000000000000011000 :"
07"
b10111111110000000000000000100000 ?
b10111111110000000000000000100000 $"
b10111111110000000000000000100000 A"
b10111111110000000000000000100100 '
b10111111110000000000000000100100 .
b10111111110000000000000000100100 N
b10111111110000000000000000100100 v
b10111111110000000000000000100100 =
b10111111110000000000000000100100 ""
b10111111110000000000000000100100 /"
b10111111110000000000000000100100 ."
b10111111110000000000000000100100 >
b10111111110000000000000000100100 )"
b10111111110000000000000000100100 ,"
b10111111110000000000000000100100 ("
b10111111110000000000000000100100 ]
b10111111110000000000000000100100 t
b10111111110000000000000000100100 +"
b10111111110000000000000000100100 _
b10111111110000000000000000100100 '"
b10111111110000000000000000100100 Q
b10111111110000000000000000100100 d
b0 #
b0 -
b0 Z
b10111111110000000000000000100100 U
b10111111110000000000000000100100 b
b10111111110000000000000000100100 M"
b0 6
b0 H"
b0 A
b0 -"
b0 D"
b10111111110000000000000000100100 B
b10111111110000000000000000100100 {
b10111111110000000000000000100100 4"
b10111111110000000000000000100100 C"
b10111111110000000000000000100100 K"
b10111111110000000000000000100100 9"
1)
#44
0)
#48
b100000 '
b100000 .
b100000 N
b100000 v
b100000 =
b100000 ""
b100000 /"
b100000 ."
b100000 >
b100000 )"
b100000 ,"
b100000 ("
b100000 ]
b100000 t
b100000 +"
b100000 Y
b100000 a
b100000 _
b100000 '"
b100000 Q
b100000 d
b100000 T
b100000 n
0<
0J
1P
b11 R
b11 j
b11 r
b0 U
b0 b
b0 M"
b100000 K
b100000 l
b100000 0"
b1111 s
b0 B
b0 {
b0 4"
b0 C"
b0 K"
b10110001000010000000000010000000 8
b10110001000010000000000010000000 3"
b100000 ?
b100000 $"
b100000 A"
b10 @
b10 %"
b10 @"
b10 ^
b10 !"
b100000 [
b100000 h
b100000 p
b100000 w
b1001 \
b1001 i
b1001 m
b1001 q
b1001 y
b1001 F"
b0 V
b10 X
b10 o
b10 ?"
b10 W
b10 >"
b100100010000100000000000100000 4
b100100010000100000000000100000 u
b100100010000100000000000100000 ~
b100100010000100000000000100000 &"
b100100010000100000000000100000 *"
b100100010000100000000000100000 1"
b100100010000100000000000100000 J"
b100100010000100000000000100000 N"
b100100010000100000000000100000 +
b100100010000100000000000100000 3
b10111111110000000000000000100100 ;"
b10111111110000000000000000100000 E
b10111111110000000000000000100000 2"
b10111111110000000000000000011100 "
b10111111110000000000000000011100 2
b10111111110000000000000000011100 D
b10111111110000000000000000011100 :"
17"
1)
#52
0)
#56
b10111111110000000000000000010100 Y
b10111111110000000000000000010100 a
b1 S
b1 c
b1 k
b1100000100011 T
b1100000100011 n
1<
0P
b0 R
b0 j
b0 r
b1100000100011 K
b1100000100011 l
b1100000100011 0"
b1000001000 s
b10110010000011000110000010001100 8
b10110010000011000110000010001100 3"
b11 @
b11 %"
b11 @"
b11 ^
b11 !"
b100011 [
b100011 h
b100011 p
b100011 w
b0 \
b0 i
b0 m
b0 q
b0 y
b0 F"
b11 V
b11 X
b11 o
b11 ?"
b100 W
b100 >"
b100000110001100000100011 4
b100000110001100000100011 u
b100000110001100000100011 ~
b100000110001100000100011 &"
b100000110001100000100011 *"
b100000110001100000100011 1"
b100000110001100000100011 J"
b100000110001100000100011 N"
b100000110001100000100011 +
b100000110001100000100011 3
b10111111110000000000000000101000 E
b10111111110000000000000000101000 2"
b10111111110000000000000000100100 "
b10111111110000000000000000100100 2
b10111111110000000000000000100100 D
b10111111110000000000000000100100 :"
07"
b1100 ?
b1100 $"
b1100 A"
b1100 '
b1100 .
b1100 N
b1100 v
b1100 =
b1100 ""
b1100 /"
b1100 ."
b1100 >
b1100 )"
b1100 ,"
b1100 ("
b1100 ]
b1100 t
b1100 +"
b1100 _
b1100 '"
b1100 Q
b1100 d
b10111111110000000000000000010100 #
b10111111110000000000000000010100 -
b10111111110000000000000000010100 Z
b10111111110000000000000000100000 U
b10111111110000000000000000100000 b
b10111111110000000000000000100000 M"
b100000 C
b100000 E"
b10111111110000000000000000010100 6
b10111111110000000000000000010100 H"
b10111111110000000000000000010100 A
b10111111110000000000000000010100 -"
b10111111110000000000000000010100 D"
b10111111110000000000000000100000 B
b10111111110000000000000000100000 {
b10111111110000000000000000100000 4"
b10111111110000000000000000100000 C"
b10111111110000000000000000100000 K"
b10111111110000000000000000100000 9"
1)
#60
0)
#64
b1000000100001 T
b1000000100001 n
b100000 U
b100000 b
b100000 M"
b1000000100001 K
b1000000100001 l
b1000000100001 0"
b0 S
b0 c
b0 k
b100000 B
b100000 {
b100000 4"
b100000 C"
b100000 K"
b10110001000011000100000010000100 8
b10110001000011000100000010000100 3"
b10 @
b10 %"
b10 @"
b10 ^
b10 !"
b100001 [
b100001 h
b100001 p
b100001 w
b10 V
b10 W
b10 >"
b10000110001000000100001 4
b10000110001000000100001 u
b10000110001000000100001 ~
b10000110001000000100001 &"
b10000110001000000100001 *"
b10000110001000000100001 1"
b10000110001000000100001 J"
b10000110001000000100001 N"
b10000110001000000100001 +
b10000110001000000100001 3
b10111111110000000000000000101100 E
b10111111110000000000000000101100 2"
b10111111110000000000000000101000 "
b10111111110000000000000000101000 2
b10111111110000000000000000101000 D
b10111111110000000000000000101000 :"
b101100 ?
b101100 $"
b101100 A"
b101100 '
b101100 .
b101100 N
b101100 v
b101100 =
b101100 ""
b101100 /"
b101100 ."
b101100 >
b101100 )"
b101100 ,"
b101100 ("
b101100 ]
b101100 t
b101100 +"
b101100 _
b101100 '"
b101100 Q
b101100 d
b1100 #
b1100 -
b1100 Z
b1100 Y
b1100 a
b1100 6
b1100 H"
b1100 A
b1100 -"
b1100 D"
b10111111110000000000000000101000 9"
1)
#68
0)
#72
b1000 T
b1000 n
0<
1J
0;
b0 #
b0 -
b0 Z
b0 Y
b0 a
b1000 K
b1000 l
b1000 0"
b100000000 s
b0 6
b0 H"
b0 A
b0 -"
b0 D"
b10110000000000000000000000100000 8
b10110000000000000000000000100000 3"
b0 @
b0 %"
b0 @"
b0 ^
b0 !"
b1000 [
b1000 h
b1000 p
b1000 w
b0 V
b0 X
b0 o
b0 ?"
b0 W
b0 >"
b1000 4
b1000 u
b1000 ~
b1000 &"
b1000 *"
b1000 1"
b1000 J"
b1000 N"
b1000 +
b1000 3
b10111111110000000000000000110000 E
b10111111110000000000000000110000 2"
b10111111110000000000000000101100 "
b10111111110000000000000000101100 2
b10111111110000000000000000101100 D
b10111111110000000000000000101100 :"
b0 ?
b0 $"
b0 A"
b0 '
b0 .
b0 N
b0 v
b0 =
b0 ""
b0 /"
b0 ."
b0 >
b0 )"
b0 ,"
b0 ("
b0 ]
b0 t
b0 +"
b0 _
b0 '"
b0 Q
b0 d
b0 U
b0 b
b0 M"
b101100 C
b101100 E"
b0 B
b0 {
b0 4"
b0 C"
b0 K"
b0 9"
1)
#76
0)
#80
b0 T
b0 n
0J
1;
1P
b11 R
b11 j
b11 r
b0 K
b0 l
b0 0"
b0 S
b0 c
b0 k
b1111 s
b10110000000000000000000000000000 8
b10110000000000000000000000000000 3"
b0 [
b0 h
b0 p
b0 w
b1001 \
b1001 i
b1001 m
b1001 q
b1001 y
b1001 F"
b100100000000000000000000000000 4
b100100000000000000000000000000 u
b100100000000000000000000000000 ~
b100100000000000000000000000000 &"
b100100000000000000000000000000 *"
b100100000000000000000000000000 1"
b100100000000000000000000000000 J"
b100100000000000000000000000000 N"
b100100000000000000000000000000 +
b100100000000000000000000000000 3
b0 ;"
b10111111110000000000000000110100 E
b10111111110000000000000000110100 2"
b10111111110000000000000000110000 "
b10111111110000000000000000110000 2
b10111111110000000000000000110000 D
b10111111110000000000000000110000 :"
17"
1)
#84
0)
#88
b0 8
b0 3"
b101100 !
b101100 `
b100 E
b100 2"
b0 "
b0 2
b0 D
b0 :"
07"
b10111111110000000000000000110100 9"
1)
#92
0)
#96
b1000 E
b1000 2"
b100 "
b100 2
b100 D
b100 :"
b100 9"
1)
#100
0)
#104
b1100 E
b1100 2"
b1000 "
b1000 2
b1000 D
b1000 :"
b1000 9"
1)
#108
0)
#112
b10000 E
b10000 2"
b1100 "
b1100 2
b1100 D
b1100 :"
b1100 9"
1)
#116
0)
#120
b10100 E
b10100 2"
b10000 "
b10000 2
b10000 D
b10000 :"
b10000 9"
1)
#124
0)
#128
b11000 E
b11000 2"
b10100 "
b10100 2
b10100 D
b10100 :"
b10100 9"
1)
#132
0)
#136
b11100 E
b11100 2"
b11000 "
b11000 2
b11000 D
b11000 :"
b11000 9"
1)
#140
0)
#144
b100000 E
b100000 2"
b11100 "
b11100 2
b11100 D
b11100 :"
b11100 9"
1)
#148
0)
#152
b100100 E
b100100 2"
b100000 "
b100000 2
b100000 D
b100000 :"
b100000 9"
1)
#156
0)
#160
b101000 E
b101000 2"
b100100 "
b100100 2
b100100 D
b100100 :"
b100100 9"
1)
#164
0)
#168
b101100 E
b101100 2"
b101000 "
b101000 2
b101000 D
b101000 :"
b101000 9"
1)
#172
0)
#176
b110000 E
b110000 2"
b101100 "
b101100 2
b101100 D
b101100 :"
b101100 9"
1)
#180
0)
#184
b110100 E
b110100 2"
b110000 "
b110000 2
b110000 D
b110000 :"
b110000 9"
1)
#188
0)
#192
b111000 E
b111000 2"
b110100 "
b110100 2
b110100 D
b110100 :"
b110100 9"
1)
#196
0)
#200
b111100 E
b111100 2"
b111000 "
b111000 2
b111000 D
b111000 :"
b111000 9"
1)
#204
0)
#208
b1000000 E
b1000000 2"
b111100 "
b111100 2
b111100 D
b111100 :"
b111100 9"
1)
#212
0)
#216
b1000100 E
b1000100 2"
b1000000 "
b1000000 2
b1000000 D
b1000000 :"
b1000000 9"
1)
#220
0)
#224
b1001000 E
b1001000 2"
b1000100 "
b1000100 2
b1000100 D
b1000100 :"
b1000100 9"
1)
#228
0)
#232
b1001100 E
b1001100 2"
b1001000 "
b1001000 2
b1001000 D
b1001000 :"
b1001000 9"
1)
#236
0)
#240
b1010000 E
b1010000 2"
b1001100 "
b1001100 2
b1001100 D
b1001100 :"
b1001100 9"
1)
#244
0)
#248
b1010100 E
b1010100 2"
b1010000 "
b1010000 2
b1010000 D
b1010000 :"
b1010000 9"
1)
#252
0)
#256
b1011000 E
b1011000 2"
b1010100 "
b1010100 2
b1010100 D
b1010100 :"
b1010100 9"
1)
#260
0)
#264
b1011100 E
b1011100 2"
b1011000 "
b1011000 2
b1011000 D
b1011000 :"
b1011000 9"
1)
#268
0)
#272
b1100000 E
b1100000 2"
b1011100 "
b1011100 2
b1011100 D
b1011100 :"
b1011100 9"
1)
#276
0)
#280
b1100100 E
b1100100 2"
b1100000 "
b1100000 2
b1100000 D
b1100000 :"
b1100000 9"
1)
#284
0)
#288
b1101000 E
b1101000 2"
b1100100 "
b1100100 2
b1100100 D
b1100100 :"
b1100100 9"
1)
#292
0)
#296
b1101100 E
b1101100 2"
b1101000 "
b1101000 2
b1101000 D
b1101000 :"
b1101000 9"
1)
#300
0)
#304
b1110000 E
b1110000 2"
b1101100 "
b1101100 2
b1101100 D
b1101100 :"
b1101100 9"
1)
#308
0)
#312
b1110100 E
b1110100 2"
b1110000 "
b1110000 2
b1110000 D
b1110000 :"
b1110000 9"
1)
#316
0)
#320
b1111000 E
b1111000 2"
b1110100 "
b1110100 2
b1110100 D
b1110100 :"
b1110100 9"
1)
#324
0)
#328
b1111100 E
b1111100 2"
b1111000 "
b1111000 2
b1111000 D
b1111000 :"
b1111000 9"
1)
#332
0)
#336
b10000000 E
b10000000 2"
b1111100 "
b1111100 2
b1111100 D
b1111100 :"
b1111100 9"
1)
#340
0)
#344
b10000100 E
b10000100 2"
b10000000 "
b10000000 2
b10000000 D
b10000000 :"
b10000000 9"
1)
#348
0)
